0: kHyperDbg> !track
┌── nt!KiExceptionDispatch (fffff806`21633fc0)
│  ┌── nt!KiExceptionDispatchOnExceptionStack (fffff806`21621e90)
│  │  ┌── nt!KiDispatchException (fffff806`214c8980)
│  │  │  ┌── nt!memset (fffff806`21634980)
│  │  │  └── nt!memset+0x8a (fffff806`21634a0a)
│  │  │  ┌── nt!RtlGetExtendedContextLength2 (fffff806`214c7b90)
│  │  │  │  ┌── nt!RtlpValidateContextFlags (fffff806`214c7c80)
│  │  │  │  └── nt!RtlpValidateContextFlags+0x6b (fffff806`214c7ceb)
│  │  │  │  ┌── nt!RtlpGetLegacyContextLength (fffff806`214c7d10)
│  │  │  │  └── nt!RtlpGetLegacyContextLength+0x30 (fffff806`214c7d40)
│  │  │  └── nt!RtlGetExtendedContextLength2+0x76 (fffff806`214c7c06)
│  │  │  ┌── nt!alloca_probe (fffff806`2162a340)
│  │  │  └── nt!alloca_probe+0x4b (fffff806`2162a38b)
│  │  │  ┌── nt!RtlInitializeExtendedContext2 (fffff806`214c7920)
│  │  │  └── nt!RtlInitializeExtendedContext2+0x119 (fffff806`214c7a39)
│  │  │  ┌── nt!KeContextFromKframes (fffff806`214c8d90)
│  │  │  │  ┌── nt!KeCopyLastBranchInformation (fffff806`214c91a0)
│  │  │  │  └── nt!KeCopyLastBranchInformation+0x39 (fffff806`214c91d9)
│  │  │  └── nt!KeContextFromKframes+0x306 (fffff806`214c9096)
│  │  │  ┌── nt!KiPreprocessFault (fffff806`214c8bd8)
│  │  │  │  ┌── nt!memset (fffff806`21634980)
│  │  │  │  └── nt!memset+0x8a (fffff806`21634a0a)
│  │  │  └── nt!KiPreprocessFault+0x144 (fffff806`214c8d1c)
│  │  │  ┌── nt!KdTrap (fffff806`214c8ba0)
│  │  │  │  ┌── nt!KdpTrap (fffff806`21c9c178)
│  │  │  │  │  ┌── nt!KdpReport (fffff806`214c9930)
│  │  │  │  │  │  ┌── nt!KdEnterDebugger (fffff806`21c9ce8c)
│  │  │  │  │  │  │  ┌── nt!VfIsVerifierEnabled (fffff806`2151f930)
│  │  │  │  │  │  │  └── nt!VfIsVerifierEnabled+0x6 (fffff806`2151f936)
│  │  │  │  │  │  │  ┌── nt!KeFreezeExecution (fffff806`2151f9b0)
│  │  │  │  │  │  │  │  ┌── nt!memset (fffff806`21634980)
│  │  │  │  │  │  │  │  └── nt!memset+0x8a (fffff806`21634a0a)
│  │  │  │  │  │  │  │  ┌── nt!KxTryToAcquireSpinLock (fffff806`2151fd84)
│  │  │  │  │  │  │  │  └── nt!KxTryToAcquireSpinLock+0x1b (fffff806`2151fd9f)
│  │  │  │  │  │  │  │  ┌── nt!KxAcquireSpinLock (fffff806`2149fa20)
│  │  │  │  │  │  │  │  └── nt!KxAcquireSpinLock+0x19 (fffff806`2149fa39)
│  │  │  │  │  │  │  │  ┌── nt!KiStartDebugAccumulation (fffff806`215204c0)
│  │  │  │  │  │  │  │  └── nt!KiStartDebugAccumulation+0x23 (fffff806`215204e3)
│  │  │  │  │  │  │  │  ┌── nt!guard_dispatch_icall (fffff806`2162a450)
│  │  │  │  │  │  │  │  │  ┌── nt!HalpTimerResetProfileAdjustment (fffff806`21543690)
│  │  │  │  │  │  │  │  │  └── nt!HalpTimerResetProfileAdjustment+0x37 (fffff806`215436c7)
│  │  │  │  │  │  │  │  └── nt!HalpTimerNotifyProcessorFreeze+0x1a (fffff806`2154366a)
│  │  │  │  │  │  │  │  ┌── nt!KiSetDebuggerOwner (fffff806`2151f7f0)
│  │  │  │  │  │  │  │  └── nt!KiSetDebuggerOwner+0x20 (fffff806`2151f810)
│  │  │  │  │  │  │  │  ┌── nt!memset (fffff806`21634980)
│  │  │  │  │  │  │  │  └── nt!memset+0x8a (fffff806`21634a0a)
│  │  │  │  │  │  │  │  ┌── nt!KiCopyAffinityEx (fffff806`2147d590)
│  │  │  │  │  │  │  │  └── nt!KiCopyAffinityEx+0x72 (fffff806`2147d602)
│  │  │  │  │  │  │  │  ┌── nt!KeRemoveProcessorAffinityEx (fffff806`2147b860)
│  │  │  │  │  │  │  │  └── nt!KeRemoveProcessorAffinityEx+0x2f (fffff806`2147b88f)
│  │  │  │  │  │  │  │  ┌── nt!KiSendFreeze (fffff806`2151f584)
│  │  │  │  │  │  │  │  │  ┌── nt!KeEnumerateNextProcessor (fffff806`21419510)
│  │  │  │  │  │  │  │  │  └── nt!KeEnumerateNextProcessor+0x4c (fffff806`2141955c)
│  │  │  │  │  │  │  │  │  ┌── nt!KeEnumerateNextProcessor (fffff806`21419510)
│  │  │  │  │  │  │  │  │  └── nt!KeEnumerateNextProcessor+0x4c (fffff806`2141955c)
│  │  │  │  │  │  │  │  │  ┌── nt!KeEnumerateNextProcessor (fffff806`21419510)
│  │  │  │  │  │  │  │  │  └── nt!KeEnumerateNextProcessor+0x4c (fffff806`2141955c)
│  │  │  │  │  │  │  │  │  ┌── nt!KeEnumerateNextProcessor (fffff806`21419510)
│  │  │  │  │  │  │  │  │  └── nt!KeEnumerateNextProcessor+0x4c (fffff806`2141955c)
│  │  │  │  │  │  │  │  │  ┌── nt!KeEnumerateNextProcessor (fffff806`21419510)
│  │  │  │  │  │  │  │  │  └── nt!KeEnumerateNextProcessor+0x4c (fffff806`2141955c)
│  │  │  │  │  │  │  │  │  ┌── nt!KeEnumerateNextProcessor (fffff806`21419510)
│  │  │  │  │  │  │  │  │  └── nt!KeEnumerateNextProcessor+0x7c (fffff806`2141958c)
│  │  │  │  │  │  │  │  │  ┌── nt!HalSendNMI (fffff806`2151f310)
│  │  │  │  │  │  │  │  │  │  ┌── nt!memset (fffff806`21634980)
│  │  │  │  │  │  │  │  │  │  └── nt!memset+0x8a (fffff806`21634a0a)
│  │  │  │  │  │  │  │  │  │  ┌── nt!memset (fffff806`21634980)
│  │  │  │  │  │  │  │  │  │  └── nt!memset+0x8a (fffff806`21634a0a)
│  │  │  │  │  │  │  │  │  │  ┌── nt!KiAndAffinityEx (fffff806`2147cea0)
│  │  │  │  │  │  │  │  │  │  │  ┌── nt!memset (fffff806`21634980)
│  │  │  │  │  │  │  │  │  │  │  └── nt!memset+0x8a (fffff806`21634a0a)
│  │  │  │  │  │  │  │  │  │  │  ┌── nt!_security_check_cookie (fffff806`215e3750)
│  │  │  │  │  │  │  │  │  │  │  └── nt!_security_check_cookie+0x14 (fffff806`215e3764)
│  │  │  │  │  │  │  │  │  │  └── nt!KiAndAffinityEx+0x10e (fffff806`2147cfae)
│  │  │  │  │  │  │  │  │  │  ┌── nt!KeAndGroupAffinityEx (fffff806`2147ce20)
│  │  │  │  │  │  │  │  │  │  │  ┌── nt!_security_check_cookie (fffff806`215e3750)
│  │  │  │  │  │  │  │  │  │  │  └── nt!_security_check_cookie+0x14 (fffff806`215e3764)
│  │  │  │  │  │  │  │  │  │  └── nt!KeAndGroupAffinityEx+0x5e (fffff806`2147ce7e)
│  │  │  │  │  │  │  │  │  │  ┌── nt!KeGetProcessorIndexFromNumber (fffff806`2147e220)
│  │  │  │  │  │  │  │  │  │  └── nt!KeGetProcessorIndexFromNumber+0x3d (fffff806`2147e25d)
│  │  │  │  │  │  │  │  │  │  ┌── nt!KeGetProcessorIndexFromNumber (fffff806`2147e220)
│  │  │  │  │  │  │  │  │  │  └── nt!KeGetProcessorIndexFromNumber+0x3d (fffff806`2147e25d)
│  │  │  │  │  │  │  │  │  │  ┌── nt!KeGetProcessorIndexFromNumber (fffff806`2147e220)
│  │  │  │  │  │  │  │  │  │  └── nt!KeGetProcessorIndexFromNumber+0x3d (fffff806`2147e25d)
│  │  │  │  │  │  │  │  │  │  ┌── nt!KeGetProcessorIndexFromNumber (fffff806`2147e220)
│  │  │  │  │  │  │  │  │  │  └── nt!KeGetProcessorIndexFromNumber+0x3d (fffff806`2147e25d)
│  │  │  │  │  │  │  │  │  │  ┌── nt!KeGetProcessorIndexFromNumber (fffff806`2147e220)
│  │  │  │  │  │  │  │  │  │  └── nt!KeGetProcessorIndexFromNumber+0x3d (fffff806`2147e25d)
│  │  │  │  │  │  │  │  │  │  ┌── nt!guard_dispatch_icall (fffff806`2162a450)
│  │  │  │  │  │  │  │  │  │  │  ┌── nt!guard_dispatch_icall (fffff806`2162a450)
│  │  │  │  │  │  │  │  │  │  │  └── nt!HalpApicX2WriteCommand+0x2b (fffff806`215464bb)
│  │  │  │  │  │  │  │  │  │  └── nt!HalpApicRequestInterrupt+0xc5 (fffff806`2153e835)
│  │  │  │  │  │  │  │  │  │  ┌── nt!KiEnumerateNextProcessorNumber (fffff806`2147cdb4)
│  │  │  │  │  │  │  │  │  │  └── nt!KiEnumerateNextProcessorNumber+0x3f (fffff806`2147cdf3)
│  │  │  │  │  │  │  │  │  │  ┌── nt!_security_check_cookie (fffff806`215e3750)
│  │  │  │  │  │  │  │  │  │  └── nt!_security_check_cookie+0x14 (fffff806`215e3764)
│  │  │  │  │  │  │  │  │  └── nt!HalSendNMI+0x1fb (fffff806`2151f50b)
│  │  │  │  │  │  │  │  └── nt!KiSendFreeze+0xb0 (fffff806`2151f634)
│  │  │  │  │  │  │  │  ┌── nt!KeEnumerateNextProcessor (fffff806`21419510)
│  │  │  │  │  │  │  │  └── nt!KeEnumerateNextProcessor+0x4c (fffff806`2141955c)
│  │  │  │  │  │  │  │  ┌── nt!KeStallExecutionProcessor (fffff806`214186d0)
│  │  │  │  │  │  │  │  │  ┌── nt!KiCheckStall (fffff806`21416cf0)
│  │  │  │  │  │  │  │  │  │  ┌── nt!KeQueryPerformanceCounter (fffff806`2141a030)
│  │  │  │  │  │  │  │  │  │  │  ┌── nt!HalpTimerGetInternalData (fffff806`2141a780)
│  │  │  │  │  │  │  │  │  │  │  └── nt!HalpTimerGetInternalData+0x14 (fffff806`2141a794)
│  │  │  │  │  │  │  │  │  │  │  ┌── nt!guard_dispatch_icall (fffff806`2162a450)
│  │  │  │  │  │  │  │  │  │  │  │  ┌── nt!guard_dispatch_icall (fffff806`2162a450)
│  │  │  │  │  │  │  │  │  │  │  │  └── nt!HvlGetReferenceTimeUsingTscPage+0xce (fffff806`2158c72e)
│  │  │  │  │  │  │  │  │  │  │  └── nt!HalpHvCounterQueryCounter+0x1f (fffff806`2158c7ef)
│  │  │  │  │  │  │  │  │  │  └── nt!KeQueryPerformanceCounter+0x92 (fffff806`2141a0c2)
│  │  │  │  │  │  │  │  │  └── nt!KiCheckStall+0x46 (fffff806`21416d36)
│  │  │  │  │  │  │  │  │  ┌── nt!HalpTimerStallExecutionProcessor (fffff806`2141a5b0)
│  │  │  │  │  │  │  │  │  │  ┌── nt!KeQueryActiveProcessorCountEx (fffff806`21419600)
│  │  │  │  │  │  │  │  │  │  └── nt!KeQueryActiveProcessorCountEx+0x10 (fffff806`21419610)
│  │  │  │  │  │  │  │  │  │  ┌── nt!guard_dispatch_icall (fffff806`2162a450)
│  │  │  │  │  │  │  │  │  │  └── nt!HalpTscQueryCounterOrdered+0xa (fffff806`2158adea)
│  │  │  │  │  │  │  │  │  │  ┌── nt!HalpTimerGetInternalData (fffff806`2141a780)
│  │  │  │  │  │  │  │  │  │  └── nt!HalpTimerGetInternalData+0x14 (fffff806`2141a794)
│  │  │  │  │  │  │  │  │  │  ┌── nt!guard_dispatch_icall (fffff806`2162a450)
│  │  │  │  │  │  │  │  │  │  └── nt!HalpTscQueryCounterOrdered+0xa (fffff806`2158adea)
│  │  │  │  │  │  │  │  │  │  ┌── nt!_security_check_cookie (fffff806`215e3750)
│  │  │  │  │  │  │  │  │  │  └── nt!_security_check_cookie+0x14 (fffff806`215e3764)
│  │  │  │  │  │  │  │  │  └── nt!HalpTimerStallExecutionProcessor+0x161 (fffff806`2141a711)
│  │  │  │  │  │  │  │  └── nt!KeStallExecutionProcessor+0x59 (fffff806`21418729)
│  │  │  │  │  │  │  │  ┌── nt!KeStallExecutionProcessor (fffff806`214186d0)
│  │  │  │  │  │  │  │  │  ┌── nt!KiCheckStall (fffff806`21416cf0)
│  │  │  │  │  │  │  │  │  │  ┌── nt!KeQueryPerformanceCounter (fffff806`2141a030)
│  │  │  │  │  │  │  │  │  │  │  ┌── nt!HalpTimerGetInternalData (fffff806`2141a780)
│  │  │  │  │  │  │  │  │  │  │  └── nt!HalpTimerGetInternalData+0x14 (fffff806`2141a794)
│  │  │  │  │  │  │  │  │  │  │  ┌── nt!guard_dispatch_icall (fffff806`2162a450)
│  │  │  │  │  │  │  │  │  │  │  │  ┌── nt!guard_dispatch_icall (fffff806`2162a450)
│  │  │  │  │  │  │  │  │  │  │  │  └── nt!HvlGetReferenceTimeUsingTscPage+0xce (fffff806`2158c72e)
│  │  │  │  │  │  │  │  │  │  │  └── nt!HalpHvCounterQueryCounter+0x1f (fffff806`2158c7ef)
│  │  │  │  │  │  │  │  │  │  └── nt!KeQueryPerformanceCounter+0x92 (fffff806`2141a0c2)
│  │  │  │  │  │  │  │  │  └── nt!KiCheckStall+0x46 (fffff806`21416d36)
│  │  │  │  │  │  │  │  │  ┌── nt!HalpTimerStallExecutionProcessor (fffff806`2141a5b0)
│  │  │  │  │  │  │  │  │  │  ┌── nt!KeQueryActiveProcessorCountEx (fffff806`21419600)
│  │  │  │  │  │  │  │  │  │  └── nt!KeQueryActiveProcessorCountEx+0x10 (fffff806`21419610)
│  │  │  │  │  │  │  │  │  │  ┌── nt!guard_dispatch_icall (fffff806`2162a450)
│  │  │  │  │  │  │  │  │  │  └── nt!HalpTscQueryCounterOrdered+0xa (fffff806`2158adea)
│  │  │  │  │  │  │  │  │  │  ┌── nt!HalpTimerGetInternalData (fffff806`2141a780)
│  │  │  │  │  │  │  │  │  │  └── nt!HalpTimerGetInternalData+0x14 (fffff806`2141a794)
│  │  │  │  │  │  │  │  │  │  ┌── nt!guard_dispatch_icall (fffff806`2162a450)
│  │  │  │  │  │  │  │  │  │  └── nt!HalpTscQueryCounterOrdered+0xa (fffff806`2158adea)
│  │  │  │  │  │  │  │  │  │  ┌── nt!_security_check_cookie (fffff806`215e3750)
│  │  │  │  │  │  │  │  │  │  └── nt!_security_check_cookie+0x14 (fffff806`215e3764)
│  │  │  │  │  │  │  │  │  └── nt!HalpTimerStallExecutionProcessor+0x161 (fffff806`2141a711)
│  │  │  │  │  │  │  │  └── nt!KeStallExecutionProcessor+0x59 (fffff806`21418729)
│  │  │  │  │  │  │  │  ┌── nt!KeStallExecutionProcessor (fffff806`214186d0)
│  │  │  │  │  │  │  │  │  ┌── nt!KiCheckStall (fffff806`21416cf0)
│  │  │  │  │  │  │  │  │  │  ┌── nt!KeQueryPerformanceCounter (fffff806`2141a030)
│  │  │  │  │  │  │  │  │  │  │  ┌── nt!HalpTimerGetInternalData (fffff806`2141a780)
│  │  │  │  │  │  │  │  │  │  │  └── nt!HalpTimerGetInternalData+0x14 (fffff806`2141a794)
│  │  │  │  │  │  │  │  │  │  │  ┌── nt!guard_dispatch_icall (fffff806`2162a450)
│  │  │  │  │  │  │  │  │  │  │  │  ┌── nt!guard_dispatch_icall (fffff806`2162a450)
│  │  │  │  │  │  │  │  │  │  │  │  └── nt!HvlGetReferenceTimeUsingTscPage+0xce (fffff806`2158c72e)
│  │  │  │  │  │  │  │  │  │  │  └── nt!HalpHvCounterQueryCounter+0x1f (fffff806`2158c7ef)
│  │  │  │  │  │  │  │  │  │  └── nt!KeQueryPerformanceCounter+0x92 (fffff806`2141a0c2)
│  │  │  │  │  │  │  │  │  └── nt!KiCheckStall+0x46 (fffff806`21416d36)
│  │  │  │  │  │  │  │  │  ┌── nt!HalpTimerStallExecutionProcessor (fffff806`2141a5b0)
│  │  │  │  │  │  │  │  │  │  ┌── nt!KeQueryActiveProcessorCountEx (fffff806`21419600)
│  │  │  │  │  │  │  │  │  │  └── nt!KeQueryActiveProcessorCountEx+0x10 (fffff806`21419610)
│  │  │  │  │  │  │  │  │  │  ┌── nt!guard_dispatch_icall (fffff806`2162a450)
│  │  │  │  │  │  │  │  │  │  └── nt!HalpTscQueryCounterOrdered+0xa (fffff806`2158adea)
│  │  │  │  │  │  │  │  │  │  ┌── nt!HalpTimerGetInternalData (fffff806`2141a780)
│  │  │  │  │  │  │  │  │  │  └── nt!HalpTimerGetInternalData+0x14 (fffff806`2141a794)
│  │  │  │  │  │  │  │  │  │  ┌── nt!guard_dispatch_icall (fffff806`2162a450)
│  │  │  │  │  │  │  │  │  │  └── nt!HalpTscQueryCounterOrdered+0xa (fffff806`2158adea)
│  │  │  │  │  │  │  │  │  │  ┌── nt!_security_check_cookie (fffff806`215e3750)
│  │  │  │  │  │  │  │  │  │  └── nt!_security_check_cookie+0x14 (fffff806`215e3764)
│  │  │  │  │  │  │  │  │  └── nt!HalpTimerStallExecutionProcessor+0x161 (fffff806`2141a711)
│  │  │  │  │  │  │  │  └── nt!KeStallExecutionProcessor+0x59 (fffff806`21418729)
│  │  │  │  │  │  │  │  ┌── nt!KeStallExecutionProcessor (fffff806`214186d0)
│  │  │  │  │  │  │  │  │  ┌── nt!KiCheckStall (fffff806`21416cf0)
│  │  │  │  │  │  │  │  │  │  ┌── nt!KeQueryPerformanceCounter (fffff806`2141a030)
│  │  │  │  │  │  │  │  │  │  │  ┌── nt!HalpTimerGetInternalData (fffff806`2141a780)
│  │  │  │  │  │  │  │  │  │  │  └── nt!HalpTimerGetInternalData+0x14 (fffff806`2141a794)
│  │  │  │  │  │  │  │  │  │  │  ┌── nt!guard_dispatch_icall (fffff806`2162a450)
│  │  │  │  │  │  │  │  │  │  │  │  ┌── nt!guard_dispatch_icall (fffff806`2162a450)
│  │  │  │  │  │  │  │  │  │  │  │  └── nt!HvlGetReferenceTimeUsingTscPage+0xce (fffff806`2158c72e)
│  │  │  │  │  │  │  │  │  │  │  └── nt!HalpHvCounterQueryCounter+0x1f (fffff806`2158c7ef)
│  │  │  │  │  │  │  │  │  │  └── nt!KeQueryPerformanceCounter+0x92 (fffff806`2141a0c2)
│  │  │  │  │  │  │  │  │  └── nt!KiCheckStall+0x46 (fffff806`21416d36)
│  │  │  │  │  │  │  │  │  ┌── nt!HalpTimerStallExecutionProcessor (fffff806`2141a5b0)
│  │  │  │  │  │  │  │  │  │  ┌── nt!KeQueryActiveProcessorCountEx (fffff806`21419600)
│  │  │  │  │  │  │  │  │  │  └── nt!KeQueryActiveProcessorCountEx+0x10 (fffff806`21419610)
│  │  │  │  │  │  │  │  │  │  ┌── nt!guard_dispatch_icall (fffff806`2162a450)
│  │  │  │  │  │  │  │  │  │  └── nt!HalpTscQueryCounterOrdered+0xa (fffff806`2158adea)
│  │  │  │  │  │  │  │  │  │  ┌── nt!HalpTimerGetInternalData (fffff806`2141a780)
│  │  │  │  │  │  │  │  │  │  └── nt!HalpTimerGetInternalData+0x14 (fffff806`2141a794)
│  │  │  │  │  │  │  │  │  │  ┌── nt!guard_dispatch_icall (fffff806`2162a450)
│  │  │  │  │  │  │  │  │  │  └── nt!HalpTscQueryCounterOrdered+0xa (fffff806`2158adea)
│  │  │  │  │  │  │  │  │  │  ┌── nt!_security_check_cookie (fffff806`215e3750)
│  │  │  │  │  │  │  │  │  │  └── nt!_security_check_cookie+0x14 (fffff806`215e3764)
│  │  │  │  │  │  │  │  │  └── nt!HalpTimerStallExecutionProcessor+0x161 (fffff806`2141a711)
│  │  │  │  │  │  │  │  └── nt!KeStallExecutionProcessor+0x59 (fffff806`21418729)
│  │  │  │  │  │  │  │  ┌── nt!KeStallExecutionProcessor (fffff806`214186d0)
│  │  │  │  │  │  │  │  │  ┌── nt!KiCheckStall (fffff806`21416cf0)
│  │  │  │  │  │  │  │  │  │  ┌── nt!KeQueryPerformanceCounter (fffff806`2141a030)
│  │  │  │  │  │  │  │  │  │  │  ┌── nt!HalpTimerGetInternalData (fffff806`2141a780)
│  │  │  │  │  │  │  │  │  │  │  └── nt!HalpTimerGetInternalData+0x14 (fffff806`2141a794)
│  │  │  │  │  │  │  │  │  │  │  ┌── nt!guard_dispatch_icall (fffff806`2162a450)
│  │  │  │  │  │  │  │  │  │  │  │  ┌── nt!guard_dispatch_icall (fffff806`2162a450)
│  │  │  │  │  │  │  │  │  │  │  │  └── nt!HvlGetReferenceTimeUsingTscPage+0xce (fffff806`2158c72e)
│  │  │  │  │  │  │  │  │  │  │  └── nt!HalpHvCounterQueryCounter+0x1f (fffff806`2158c7ef)
│  │  │  │  │  │  │  │  │  │  └── nt!KeQueryPerformanceCounter+0x92 (fffff806`2141a0c2)
│  │  │  │  │  │  │  │  │  └── nt!KiCheckStall+0x46 (fffff806`21416d36)
│  │  │  │  │  │  │  │  │  ┌── nt!HalpTimerStallExecutionProcessor (fffff806`2141a5b0)
│  │  │  │  │  │  │  │  │  │  ┌── nt!KeQueryActiveProcessorCountEx (fffff806`21419600)
│  │  │  │  │  │  │  │  │  │  └── nt!KeQueryActiveProcessorCountEx+0x10 (fffff806`21419610)
│  │  │  │  │  │  │  │  │  │  ┌── nt!guard_dispatch_icall (fffff806`2162a450)
│  │  │  │  │  │  │  │  │  │  └── nt!HalpTscQueryCounterOrdered+0xa (fffff806`2158adea)
│  │  │  │  │  │  │  │  │  │  ┌── nt!HalpTimerGetInternalData (fffff806`2141a780)
│  │  │  │  │  │  │  │  │  │  └── nt!HalpTimerGetInternalData+0x14 (fffff806`2141a794)
│  │  │  │  │  │  │  │  │  │  ┌── nt!guard_dispatch_icall (fffff806`2162a450)
│  │  │  │  │  │  │  │  │  │  └── nt!HalpTscQueryCounterOrdered+0xa (fffff806`2158adea)
│  │  │  │  │  │  │  │  │  │  ┌── nt!_security_check_cookie (fffff806`215e3750)
│  │  │  │  │  │  │  │  │  │  └── nt!_security_check_cookie+0x14 (fffff806`215e3764)
│  │  │  │  │  │  │  │  │  └── nt!HalpTimerStallExecutionProcessor+0x161 (fffff806`2141a711)
│  │  │  │  │  │  │  │  └── nt!KeStallExecutionProcessor+0x59 (fffff806`21418729)
│  │  │  │  │  │  │  │  ┌── nt!KeStallExecutionProcessor (fffff806`214186d0)
│  │  │  │  │  │  │  │  │  ┌── nt!KiCheckStall (fffff806`21416cf0)
│  │  │  │  │  │  │  │  │  │  ┌── nt!KeQueryPerformanceCounter (fffff806`2141a030)
│  │  │  │  │  │  │  │  │  │  │  ┌── nt!HalpTimerGetInternalData (fffff806`2141a780)
│  │  │  │  │  │  │  │  │  │  │  └── nt!HalpTimerGetInternalData+0x14 (fffff806`2141a794)
│  │  │  │  │  │  │  │  │  │  │  ┌── nt!guard_dispatch_icall (fffff806`2162a450)
│  │  │  │  │  │  │  │  │  │  │  │  ┌── nt!guard_dispatch_icall (fffff806`2162a450)
│  │  │  │  │  │  │  │  │  │  │  │  └── nt!HvlGetReferenceTimeUsingTscPage+0xce (fffff806`2158c72e)
│  │  │  │  │  │  │  │  │  │  │  └── nt!HalpHvCounterQueryCounter+0x1f (fffff806`2158c7ef)
│  │  │  │  │  │  │  │  │  │  └── nt!KeQueryPerformanceCounter+0x92 (fffff806`2141a0c2)
│  │  │  │  │  │  │  │  │  └── nt!KiCheckStall+0x46 (fffff806`21416d36)
│  │  │  │  │  │  │  │  │  ┌── nt!HalpTimerStallExecutionProcessor (fffff806`2141a5b0)
│  │  │  │  │  │  │  │  │  │  ┌── nt!KeQueryActiveProcessorCountEx (fffff806`21419600)
│  │  │  │  │  │  │  │  │  │  └── nt!KeQueryActiveProcessorCountEx+0x10 (fffff806`21419610)
│  │  │  │  │  │  │  │  │  │  ┌── nt!guard_dispatch_icall (fffff806`2162a450)
│  │  │  │  │  │  │  │  │  │  └── nt!HalpTscQueryCounterOrdered+0xa (fffff806`2158adea)
│  │  │  │  │  │  │  │  │  │  ┌── nt!HalpTimerGetInternalData (fffff806`2141a780)
│  │  │  │  │  │  │  │  │  │  └── nt!HalpTimerGetInternalData+0x14 (fffff806`2141a794)
│  │  │  │  │  │  │  │  │  │  ┌── nt!guard_dispatch_icall (fffff806`2162a450)
│  │  │  │  │  │  │  │  │  │  └── nt!HalpTscQueryCounterOrdered+0xa (fffff806`2158adea)
│  │  │  │  │  │  │  │  │  │  ┌── nt!_security_check_cookie (fffff806`215e3750)
│  │  │  │  │  │  │  │  │  │  └── nt!_security_check_cookie+0x14 (fffff806`215e3764)
│  │  │  │  │  │  │  │  │  └── nt!HalpTimerStallExecutionProcessor+0x161 (fffff806`2141a711)
│  │  │  │  │  │  │  │  └── nt!KeStallExecutionProcessor+0x59 (fffff806`21418729)
│  │  │  │  │  │  │  │  ┌── nt!KeStallExecutionProcessor (fffff806`214186d0)
│  │  │  │  │  │  │  │  │  ┌── nt!KiCheckStall (fffff806`21416cf0)
│  │  │  │  │  │  │  │  │  │  ┌── nt!KeQueryPerformanceCounter (fffff806`2141a030)
│  │  │  │  │  │  │  │  │  │  │  ┌── nt!HalpTimerGetInternalData (fffff806`2141a780)
│  │  │  │  │  │  │  │  │  │  │  └── nt!HalpTimerGetInternalData+0x14 (fffff806`2141a794)
│  │  │  │  │  │  │  │  │  │  │  ┌── nt!guard_dispatch_icall (fffff806`2162a450)
│  │  │  │  │  │  │  │  │  │  │  │  ┌── nt!guard_dispatch_icall (fffff806`2162a450)
│  │  │  │  │  │  │  │  │  │  │  │  └── nt!HvlGetReferenceTimeUsingTscPage+0xce (fffff806`2158c72e)
│  │  │  │  │  │  │  │  │  │  │  └── nt!HalpHvCounterQueryCounter+0x1f (fffff806`2158c7ef)
│  │  │  │  │  │  │  │  │  │  └── nt!KeQueryPerformanceCounter+0x92 (fffff806`2141a0c2)
│  │  │  │  │  │  │  │  │  └── nt!KiCheckStall+0x46 (fffff806`21416d36)
│  │  │  │  │  │  │  │  │  ┌── nt!HalpTimerStallExecutionProcessor (fffff806`2141a5b0)
│  │  │  │  │  │  │  │  │  │  ┌── nt!KeQueryActiveProcessorCountEx (fffff806`21419600)
│  │  │  │  │  │  │  │  │  │  └── nt!KeQueryActiveProcessorCountEx+0x10 (fffff806`21419610)
│  │  │  │  │  │  │  │  │  │  ┌── nt!guard_dispatch_icall (fffff806`2162a450)
│  │  │  │  │  │  │  │  │  │  └── nt!HalpTscQueryCounterOrdered+0xa (fffff806`2158adea)
│  │  │  │  │  │  │  │  │  │  ┌── nt!HalpTimerGetInternalData (fffff806`2141a780)
│  │  │  │  │  │  │  │  │  │  └── nt!HalpTimerGetInternalData+0x14 (fffff806`2141a794)
│  │  │  │  │  │  │  │  │  │  ┌── nt!guard_dispatch_icall (fffff806`2162a450)
│  │  │  │  │  │  │  │  │  │  └── nt!HalpTscQueryCounterOrdered+0xa (fffff806`2158adea)
│  │  │  │  │  │  │  │  │  │  ┌── nt!_security_check_cookie (fffff806`215e3750)
│  │  │  │  │  │  │  │  │  │  └── nt!_security_check_cookie+0x14 (fffff806`215e3764)
│  │  │  │  │  │  │  │  │  └── nt!HalpTimerStallExecutionProcessor+0x161 (fffff806`2141a711)
│  │  │  │  │  │  │  │  └── nt!KeStallExecutionProcessor+0x59 (fffff806`21418729)
│  │  │  │  │  │  │  │  ┌── nt!KeStallExecutionProcessor (fffff806`214186d0)
│  │  │  │  │  │  │  │  │  ┌── nt!KiCheckStall (fffff806`21416cf0)
│  │  │  │  │  │  │  │  │  │  ┌── nt!KeQueryPerformanceCounter (fffff806`2141a030)
│  │  │  │  │  │  │  │  │  │  │  ┌── nt!HalpTimerGetInternalData (fffff806`2141a780)
│  │  │  │  │  │  │  │  │  │  │  └── nt!HalpTimerGetInternalData+0x14 (fffff806`2141a794)
│  │  │  │  │  │  │  │  │  │  │  ┌── nt!guard_dispatch_icall (fffff806`2162a450)
│  │  │  │  │  │  │  │  │  │  │  │  ┌── nt!guard_dispatch_icall (fffff806`2162a450)
│  │  │  │  │  │  │  │  │  │  │  │  └── nt!HvlGetReferenceTimeUsingTscPage+0xce (fffff806`2158c72e)
│  │  │  │  │  │  │  │  │  │  │  └── nt!HalpHvCounterQueryCounter+0x1f (fffff806`2158c7ef)
│  │  │  │  │  │  │  │  │  │  └── nt!KeQueryPerformanceCounter+0x92 (fffff806`2141a0c2)
│  │  │  │  │  │  │  │  │  └── nt!KiCheckStall+0x46 (fffff806`21416d36)
│  │  │  │  │  │  │  │  │  ┌── nt!HalpTimerStallExecutionProcessor (fffff806`2141a5b0)
│  │  │  │  │  │  │  │  │  │  ┌── nt!KeQueryActiveProcessorCountEx (fffff806`21419600)
│  │  │  │  │  │  │  │  │  │  └── nt!KeQueryActiveProcessorCountEx+0x10 (fffff806`21419610)
│  │  │  │  │  │  │  │  │  │  ┌── nt!guard_dispatch_icall (fffff806`2162a450)
│  │  │  │  │  │  │  │  │  │  └── nt!HalpTscQueryCounterOrdered+0xa (fffff806`2158adea)
│  │  │  │  │  │  │  │  │  │  ┌── nt!HalpTimerGetInternalData (fffff806`2141a780)
│  │  │  │  │  │  │  │  │  │  └── nt!HalpTimerGetInternalData+0x14 (fffff806`2141a794)
│  │  │  │  │  │  │  │  │  │  ┌── nt!guard_dispatch_icall (fffff806`2162a450)
│  │  │  │  │  │  │  │  │  │  └── nt!HalpTscQueryCounterOrdered+0xa (fffff806`2158adea)
│  │  │  │  │  │  │  │  │  │  ┌── nt!_security_check_cookie (fffff806`215e3750)
│  │  │  │  │  │  │  │  │  │  └── nt!_security_check_cookie+0x14 (fffff806`215e3764)
│  │  │  │  │  │  │  │  │  └── nt!HalpTimerStallExecutionProcessor+0x161 (fffff806`2141a711)
│  │  │  │  │  │  │  │  └── nt!KeStallExecutionProcessor+0x59 (fffff806`21418729)
│  │  │  │  │  │  │  │  ┌── nt!KeStallExecutionProcessor (fffff806`214186d0)
│  │  │  │  │  │  │  │  │  ┌── nt!KiCheckStall (fffff806`21416cf0)
│  │  │  │  │  │  │  │  │  │  ┌── nt!KeQueryPerformanceCounter (fffff806`2141a030)
│  │  │  │  │  │  │  │  │  │  │  ┌── nt!HalpTimerGetInternalData (fffff806`2141a780)
│  │  │  │  │  │  │  │  │  │  │  └── nt!HalpTimerGetInternalData+0x14 (fffff806`2141a794)
│  │  │  │  │  │  │  │  │  │  │  ┌── nt!guard_dispatch_icall (fffff806`2162a450)
│  │  │  │  │  │  │  │  │  │  │  │  ┌── nt!guard_dispatch_icall (fffff806`2162a450)
│  │  │  │  │  │  │  │  │  │  │  │  └── nt!HvlGetReferenceTimeUsingTscPage+0xce (fffff806`2158c72e)
│  │  │  │  │  │  │  │  │  │  │  └── nt!HalpHvCounterQueryCounter+0x1f (fffff806`2158c7ef)
│  │  │  │  │  │  │  │  │  │  └── nt!KeQueryPerformanceCounter+0x92 (fffff806`2141a0c2)
│  │  │  │  │  │  │  │  │  └── nt!KiCheckStall+0x46 (fffff806`21416d36)
│  │  │  │  │  │  │  │  │  ┌── nt!HalpTimerStallExecutionProcessor (fffff806`2141a5b0)
│  │  │  │  │  │  │  │  │  │  ┌── nt!KeQueryActiveProcessorCountEx (fffff806`21419600)
│  │  │  │  │  │  │  │  │  │  └── nt!KeQueryActiveProcessorCountEx+0x10 (fffff806`21419610)
│  │  │  │  │  │  │  │  │  │  ┌── nt!guard_dispatch_icall (fffff806`2162a450)
│  │  │  │  │  │  │  │  │  │  └── nt!HalpTscQueryCounterOrdered+0xa (fffff806`2158adea)
│  │  │  │  │  │  │  │  │  │  ┌── nt!HalpTimerGetInternalData (fffff806`2141a780)
│  │  │  │  │  │  │  │  │  │  └── nt!HalpTimerGetInternalData+0x14 (fffff806`2141a794)
│  │  │  │  │  │  │  │  │  │  ┌── nt!guard_dispatch_icall (fffff806`2162a450)
│  │  │  │  │  │  │  │  │  │  └── nt!HalpTscQueryCounterOrdered+0xa (fffff806`2158adea)
│  │  │  │  │  │  │  │  │  │  ┌── nt!_security_check_cookie (fffff806`215e3750)
│  │  │  │  │  │  │  │  │  │  └── nt!_security_check_cookie+0x14 (fffff806`215e3764)
│  │  │  │  │  │  │  │  │  └── nt!HalpTimerStallExecutionProcessor+0x161 (fffff806`2141a711)
│  │  │  │  │  │  │  │  └── nt!KeStallExecutionProcessor+0x59 (fffff806`21418729)
│  │  │  │  │  │  │  │  ┌── nt!KeStallExecutionProcessor (fffff806`214186d0)
│  │  │  │  │  │  │  │  │  ┌── nt!KiCheckStall (fffff806`21416cf0)
│  │  │  │  │  │  │  │  │  │  ┌── nt!KeQueryPerformanceCounter (fffff806`2141a030)
│  │  │  │  │  │  │  │  │  │  │  ┌── nt!HalpTimerGetInternalData (fffff806`2141a780)
│  │  │  │  │  │  │  │  │  │  │  └── nt!HalpTimerGetInternalData+0x14 (fffff806`2141a794)
│  │  │  │  │  │  │  │  │  │  │  ┌── nt!guard_dispatch_icall (fffff806`2162a450)
│  │  │  │  │  │  │  │  │  │  │  │  ┌── nt!guard_dispatch_icall (fffff806`2162a450)
│  │  │  │  │  │  │  │  │  │  │  │  └── nt!HvlGetReferenceTimeUsingTscPage+0xce (fffff806`2158c72e)
│  │  │  │  │  │  │  │  │  │  │  └── nt!HalpHvCounterQueryCounter+0x1f (fffff806`2158c7ef)
│  │  │  │  │  │  │  │  │  │  └── nt!KeQueryPerformanceCounter+0x92 (fffff806`2141a0c2)
│  │  │  │  │  │  │  │  │  └── nt!KiCheckStall+0x46 (fffff806`21416d36)
│  │  │  │  │  │  │  │  │  ┌── nt!HalpTimerStallExecutionProcessor (fffff806`2141a5b0)
│  │  │  │  │  │  │  │  │  │  ┌── nt!KeQueryActiveProcessorCountEx (fffff806`21419600)
│  │  │  │  │  │  │  │  │  │  └── nt!KeQueryActiveProcessorCountEx+0x10 (fffff806`21419610)
│  │  │  │  │  │  │  │  │  │  ┌── nt!guard_dispatch_icall (fffff806`2162a450)
│  │  │  │  │  │  │  │  │  │  └── nt!HalpTscQueryCounterOrdered+0xa (fffff806`2158adea)
│  │  │  │  │  │  │  │  │  │  ┌── nt!HalpTimerGetInternalData (fffff806`2141a780)
│  │  │  │  │  │  │  │  │  │  └── nt!HalpTimerGetInternalData+0x14 (fffff806`2141a794)
│  │  │  │  │  │  │  │  │  │  ┌── nt!guard_dispatch_icall (fffff806`2162a450)
│  │  │  │  │  │  │  │  │  │  └── nt!HalpTscQueryCounterOrdered+0xa (fffff806`2158adea)
│  │  │  │  │  │  │  │  │  │  ┌── nt!_security_check_cookie (fffff806`215e3750)
│  │  │  │  │  │  │  │  │  │  └── nt!_security_check_cookie+0x14 (fffff806`215e3764)
│  │  │  │  │  │  │  │  │  └── nt!HalpTimerStallExecutionProcessor+0x161 (fffff806`2141a711)
│  │  │  │  │  │  │  │  └── nt!KeStallExecutionProcessor+0x59 (fffff806`21418729)
│  │  │  │  │  │  │  │  ┌── nt!KeStallExecutionProcessor (fffff806`214186d0)
│  │  │  │  │  │  │  │  │  ┌── nt!KiCheckStall (fffff806`21416cf0)
│  │  │  │  │  │  │  │  │  │  ┌── nt!KeQueryPerformanceCounter (fffff806`2141a030)
│  │  │  │  │  │  │  │  │  │  │  ┌── nt!HalpTimerGetInternalData (fffff806`2141a780)
│  │  │  │  │  │  │  │  │  │  │  └── nt!HalpTimerGetInternalData+0x14 (fffff806`2141a794)
│  │  │  │  │  │  │  │  │  │  │  ┌── nt!guard_dispatch_icall (fffff806`2162a450)
│  │  │  │  │  │  │  │  │  │  │  │  ┌── nt!guard_dispatch_icall (fffff806`2162a450)
│  │  │  │  │  │  │  │  │  │  │  │  └── nt!HvlGetReferenceTimeUsingTscPage+0xce (fffff806`2158c72e)
│  │  │  │  │  │  │  │  │  │  │  └── nt!HalpHvCounterQueryCounter+0x1f (fffff806`2158c7ef)
│  │  │  │  │  │  │  │  │  │  └── nt!KeQueryPerformanceCounter+0x92 (fffff806`2141a0c2)
│  │  │  │  │  │  │  │  │  └── nt!KiCheckStall+0x46 (fffff806`21416d36)
│  │  │  │  │  │  │  │  │  ┌── nt!HalpTimerStallExecutionProcessor (fffff806`2141a5b0)
│  │  │  │  │  │  │  │  │  │  ┌── nt!KeQueryActiveProcessorCountEx (fffff806`21419600)
│  │  │  │  │  │  │  │  │  │  └── nt!KeQueryActiveProcessorCountEx+0x10 (fffff806`21419610)
│  │  │  │  │  │  │  │  │  │  ┌── nt!guard_dispatch_icall (fffff806`2162a450)
│  │  │  │  │  │  │  │  │  │  └── nt!HalpTscQueryCounterOrdered+0xa (fffff806`2158adea)
│  │  │  │  │  │  │  │  │  │  ┌── nt!HalpTimerGetInternalData (fffff806`2141a780)
│  │  │  │  │  │  │  │  │  │  └── nt!HalpTimerGetInternalData+0x14 (fffff806`2141a794)
│  │  │  │  │  │  │  │  │  │  ┌── nt!guard_dispatch_icall (fffff806`2162a450)
│  │  │  │  │  │  │  │  │  │  └── nt!HalpTscQueryCounterOrdered+0xa (fffff806`2158adea)
│  │  │  │  │  │  │  │  │  │  ┌── nt!_security_check_cookie (fffff806`215e3750)
│  │  │  │  │  │  │  │  │  │  └── nt!_security_check_cookie+0x14 (fffff806`215e3764)
│  │  │  │  │  │  │  │  │  └── nt!HalpTimerStallExecutionProcessor+0x161 (fffff806`2141a711)
│  │  │  │  │  │  │  │  └── nt!KeStallExecutionProcessor+0x59 (fffff806`21418729)
│  │  │  │  │  │  │  │  ┌── nt!KeStallExecutionProcessor (fffff806`214186d0)
│  │  │  │  │  │  │  │  │  ┌── nt!KiCheckStall (fffff806`21416cf0)
│  │  │  │  │  │  │  │  │  │  ┌── nt!KeQueryPerformanceCounter (fffff806`2141a030)
│  │  │  │  │  │  │  │  │  │  │  ┌── nt!HalpTimerGetInternalData (fffff806`2141a780)
│  │  │  │  │  │  │  │  │  │  │  └── nt!HalpTimerGetInternalData+0x14 (fffff806`2141a794)
│  │  │  │  │  │  │  │  │  │  │  ┌── nt!guard_dispatch_icall (fffff806`2162a450)
│  │  │  │  │  │  │  │  │  │  │  │  ┌── nt!guard_dispatch_icall (fffff806`2162a450)
│  │  │  │  │  │  │  │  │  │  │  │  └── nt!HvlGetReferenceTimeUsingTscPage+0xce (fffff806`2158c72e)
│  │  │  │  │  │  │  │  │  │  │  └── nt!HalpHvCounterQueryCounter+0x1f (fffff806`2158c7ef)
│  │  │  │  │  │  │  │  │  │  └── nt!KeQueryPerformanceCounter+0x92 (fffff806`2141a0c2)
│  │  │  │  │  │  │  │  │  └── nt!KiCheckStall+0x46 (fffff806`21416d36)
│  │  │  │  │  │  │  │  │  ┌── nt!HalpTimerStallExecutionProcessor (fffff806`2141a5b0)
│  │  │  │  │  │  │  │  │  │  ┌── nt!KeQueryActiveProcessorCountEx (fffff806`21419600)
│  │  │  │  │  │  │  │  │  │  └── nt!KeQueryActiveProcessorCountEx+0x10 (fffff806`21419610)
│  │  │  │  │  │  │  │  │  │  ┌── nt!guard_dispatch_icall (fffff806`2162a450)
│  │  │  │  │  │  │  │  │  │  └── nt!HalpTscQueryCounterOrdered+0xa (fffff806`2158adea)
│  │  │  │  │  │  │  │  │  │  ┌── nt!HalpTimerGetInternalData (fffff806`2141a780)
│  │  │  │  │  │  │  │  │  │  └── nt!HalpTimerGetInternalData+0x14 (fffff806`2141a794)
│  │  │  │  │  │  │  │  │  │  ┌── nt!guard_dispatch_icall (fffff806`2162a450)
│  │  │  │  │  │  │  │  │  │  └── nt!HalpTscQueryCounterOrdered+0xa (fffff806`2158adea)
│  │  │  │  │  │  │  │  │  │  ┌── nt!_security_check_cookie (fffff806`215e3750)
│  │  │  │  │  │  │  │  │  │  └── nt!_security_check_cookie+0x14 (fffff806`215e3764)
│  │  │  │  │  │  │  │  │  └── nt!HalpTimerStallExecutionProcessor+0x161 (fffff806`2141a711)
│  │  │  │  │  │  │  │  └── nt!KeStallExecutionProcessor+0x59 (fffff806`21418729)
│  │  │  │  │  │  │  │  ┌── nt!KeStallExecutionProcessor (fffff806`214186d0)
│  │  │  │  │  │  │  │  │  ┌── nt!KiCheckStall (fffff806`21416cf0)
│  │  │  │  │  │  │  │  │  │  ┌── nt!KeQueryPerformanceCounter (fffff806`2141a030)
│  │  │  │  │  │  │  │  │  │  │  ┌── nt!HalpTimerGetInternalData (fffff806`2141a780)
│  │  │  │  │  │  │  │  │  │  │  └── nt!HalpTimerGetInternalData+0x14 (fffff806`2141a794)
│  │  │  │  │  │  │  │  │  │  │  ┌── nt!guard_dispatch_icall (fffff806`2162a450)
│  │  │  │  │  │  │  │  │  │  │  │  ┌── nt!guard_dispatch_icall (fffff806`2162a450)
│  │  │  │  │  │  │  │  │  │  │  │  └── nt!HvlGetReferenceTimeUsingTscPage+0xce (fffff806`2158c72e)
│  │  │  │  │  │  │  │  │  │  │  └── nt!HalpHvCounterQueryCounter+0x1f (fffff806`2158c7ef)
│  │  │  │  │  │  │  │  │  │  └── nt!KeQueryPerformanceCounter+0x92 (fffff806`2141a0c2)
│  │  │  │  │  │  │  │  │  └── nt!KiCheckStall+0x46 (fffff806`21416d36)
│  │  │  │  │  │  │  │  │  ┌── nt!HalpTimerStallExecutionProcessor (fffff806`2141a5b0)
│  │  │  │  │  │  │  │  │  │  ┌── nt!KeQueryActiveProcessorCountEx (fffff806`21419600)
│  │  │  │  │  │  │  │  │  │  └── nt!KeQueryActiveProcessorCountEx+0x10 (fffff806`21419610)
│  │  │  │  │  │  │  │  │  │  ┌── nt!guard_dispatch_icall (fffff806`2162a450)
│  │  │  │  │  │  │  │  │  │  └── nt!HalpTscQueryCounterOrdered+0xa (fffff806`2158adea)
│  │  │  │  │  │  │  │  │  │  ┌── nt!HalpTimerGetInternalData (fffff806`2141a780)
│  │  │  │  │  │  │  │  │  │  └── nt!HalpTimerGetInternalData+0x14 (fffff806`2141a794)
│  │  │  │  │  │  │  │  │  │  ┌── nt!guard_dispatch_icall (fffff806`2162a450)
│  │  │  │  │  │  │  │  │  │  └── nt!HalpTscQueryCounterOrdered+0xa (fffff806`2158adea)
│  │  │  │  │  │  │  │  │  │  ┌── nt!_security_check_cookie (fffff806`215e3750)
│  │  │  │  │  │  │  │  │  │  └── nt!_security_check_cookie+0x14 (fffff806`215e3764)
│  │  │  │  │  │  │  │  │  └── nt!HalpTimerStallExecutionProcessor+0x161 (fffff806`2141a711)
│  │  │  │  │  │  │  │  └── nt!KeStallExecutionProcessor+0x59 (fffff806`21418729)
│  │  │  │  │  │  │  │  ┌── nt!KeStallExecutionProcessor (fffff806`214186d0)
│  │  │  │  │  │  │  │  │  ┌── nt!KiCheckStall (fffff806`21416cf0)
│  │  │  │  │  │  │  │  │  │  ┌── nt!KeQueryPerformanceCounter (fffff806`2141a030)
│  │  │  │  │  │  │  │  │  │  │  ┌── nt!HalpTimerGetInternalData (fffff806`2141a780)
│  │  │  │  │  │  │  │  │  │  │  └── nt!HalpTimerGetInternalData+0x14 (fffff806`2141a794)
│  │  │  │  │  │  │  │  │  │  │  ┌── nt!guard_dispatch_icall (fffff806`2162a450)
│  │  │  │  │  │  │  │  │  │  │  │  ┌── nt!guard_dispatch_icall (fffff806`2162a450)
│  │  │  │  │  │  │  │  │  │  │  │  └── nt!HvlGetReferenceTimeUsingTscPage+0xce (fffff806`2158c72e)
│  │  │  │  │  │  │  │  │  │  │  └── nt!HalpHvCounterQueryCounter+0x1f (fffff806`2158c7ef)
│  │  │  │  │  │  │  │  │  │  └── nt!KeQueryPerformanceCounter+0x92 (fffff806`2141a0c2)
│  │  │  │  │  │  │  │  │  └── nt!KiCheckStall+0x46 (fffff806`21416d36)
│  │  │  │  │  │  │  │  │  ┌── nt!HalpTimerStallExecutionProcessor (fffff806`2141a5b0)
│  │  │  │  │  │  │  │  │  │  ┌── nt!KeQueryActiveProcessorCountEx (fffff806`21419600)
│  │  │  │  │  │  │  │  │  │  └── nt!KeQueryActiveProcessorCountEx+0x10 (fffff806`21419610)
│  │  │  │  │  │  │  │  │  │  ┌── nt!guard_dispatch_icall (fffff806`2162a450)
│  │  │  │  │  │  │  │  │  │  └── nt!HalpTscQueryCounterOrdered+0xa (fffff806`2158adea)
│  │  │  │  │  │  │  │  │  │  ┌── nt!HalpTimerGetInternalData (fffff806`2141a780)
│  │  │  │  │  │  │  │  │  │  └── nt!HalpTimerGetInternalData+0x14 (fffff806`2141a794)
│  │  │  │  │  │  │  │  │  │  ┌── nt!guard_dispatch_icall (fffff806`2162a450)
│  │  │  │  │  │  │  │  │  │  └── nt!HalpTscQueryCounterOrdered+0xa (fffff806`2158adea)
│  │  │  │  │  │  │  │  │  │  ┌── nt!_security_check_cookie (fffff806`215e3750)
│  │  │  │  │  │  │  │  │  │  └── nt!_security_check_cookie+0x14 (fffff806`215e3764)
│  │  │  │  │  │  │  │  │  └── nt!HalpTimerStallExecutionProcessor+0x161 (fffff806`2141a711)
│  │  │  │  │  │  │  │  └── nt!KeStallExecutionProcessor+0x59 (fffff806`21418729)
│  │  │  │  │  │  │  │  ┌── nt!KeStallExecutionProcessor (fffff806`214186d0)
│  │  │  │  │  │  │  │  │  ┌── nt!KiCheckStall (fffff806`21416cf0)
│  │  │  │  │  │  │  │  │  │  ┌── nt!KeQueryPerformanceCounter (fffff806`2141a030)
│  │  │  │  │  │  │  │  │  │  │  ┌── nt!HalpTimerGetInternalData (fffff806`2141a780)
│  │  │  │  │  │  │  │  │  │  │  └── nt!HalpTimerGetInternalData+0x14 (fffff806`2141a794)
│  │  │  │  │  │  │  │  │  │  │  ┌── nt!guard_dispatch_icall (fffff806`2162a450)
│  │  │  │  │  │  │  │  │  │  │  │  ┌── nt!guard_dispatch_icall (fffff806`2162a450)
│  │  │  │  │  │  │  │  │  │  │  │  └── nt!HvlGetReferenceTimeUsingTscPage+0xce (fffff806`2158c72e)
│  │  │  │  │  │  │  │  │  │  │  └── nt!HalpHvCounterQueryCounter+0x1f (fffff806`2158c7ef)
│  │  │  │  │  │  │  │  │  │  └── nt!KeQueryPerformanceCounter+0x92 (fffff806`2141a0c2)
│  │  │  │  │  │  │  │  │  └── nt!KiCheckStall+0x46 (fffff806`21416d36)
│  │  │  │  │  │  │  │  │  ┌── nt!HalpTimerStallExecutionProcessor (fffff806`2141a5b0)
│  │  │  │  │  │  │  │  │  │  ┌── nt!KeQueryActiveProcessorCountEx (fffff806`21419600)
│  │  │  │  │  │  │  │  │  │  └── nt!KeQueryActiveProcessorCountEx+0x10 (fffff806`21419610)
│  │  │  │  │  │  │  │  │  │  ┌── nt!guard_dispatch_icall (fffff806`2162a450)
│  │  │  │  │  │  │  │  │  │  └── nt!HalpTscQueryCounterOrdered+0xa (fffff806`2158adea)
│  │  │  │  │  │  │  │  │  │  ┌── nt!HalpTimerGetInternalData (fffff806`2141a780)
│  │  │  │  │  │  │  │  │  │  └── nt!HalpTimerGetInternalData+0x14 (fffff806`2141a794)
│  │  │  │  │  │  │  │  │  │  ┌── nt!guard_dispatch_icall (fffff806`2162a450)
│  │  │  │  │  │  │  │  │  │  └── nt!HalpTscQueryCounterOrdered+0xa (fffff806`2158adea)
│  │  │  │  │  │  │  │  │  │  ┌── nt!_security_check_cookie (fffff806`215e3750)
│  │  │  │  │  │  │  │  │  │  └── nt!_security_check_cookie+0x14 (fffff806`215e3764)
│  │  │  │  │  │  │  │  │  └── nt!HalpTimerStallExecutionProcessor+0x161 (fffff806`2141a711)
│  │  │  │  │  │  │  │  └── nt!KeStallExecutionProcessor+0x59 (fffff806`21418729)
│  │  │  │  │  │  │  │  ┌── nt!KeStallExecutionProcessor (fffff806`214186d0)
│  │  │  │  │  │  │  │  │  ┌── nt!KiCheckStall (fffff806`21416cf0)
│  │  │  │  │  │  │  │  │  │  ┌── nt!KeQueryPerformanceCounter (fffff806`2141a030)
│  │  │  │  │  │  │  │  │  │  │  ┌── nt!HalpTimerGetInternalData (fffff806`2141a780)
│  │  │  │  │  │  │  │  │  │  │  └── nt!HalpTimerGetInternalData+0x14 (fffff806`2141a794)
│  │  │  │  │  │  │  │  │  │  │  ┌── nt!guard_dispatch_icall (fffff806`2162a450)
│  │  │  │  │  │  │  │  │  │  │  │  ┌── nt!guard_dispatch_icall (fffff806`2162a450)
│  │  │  │  │  │  │  │  │  │  │  │  └── nt!HvlGetReferenceTimeUsingTscPage+0xce (fffff806`2158c72e)
│  │  │  │  │  │  │  │  │  │  │  └── nt!HalpHvCounterQueryCounter+0x1f (fffff806`2158c7ef)
│  │  │  │  │  │  │  │  │  │  └── nt!KeQueryPerformanceCounter+0x92 (fffff806`2141a0c2)
│  │  │  │  │  │  │  │  │  └── nt!KiCheckStall+0x46 (fffff806`21416d36)
│  │  │  │  │  │  │  │  │  ┌── nt!HalpTimerStallExecutionProcessor (fffff806`2141a5b0)
│  │  │  │  │  │  │  │  │  │  ┌── nt!KeQueryActiveProcessorCountEx (fffff806`21419600)
│  │  │  │  │  │  │  │  │  │  └── nt!KeQueryActiveProcessorCountEx+0x10 (fffff806`21419610)
│  │  │  │  │  │  │  │  │  │  ┌── nt!guard_dispatch_icall (fffff806`2162a450)
│  │  │  │  │  │  │  │  │  │  └── nt!HalpTscQueryCounterOrdered+0xa (fffff806`2158adea)
│  │  │  │  │  │  │  │  │  │  ┌── nt!HalpTimerGetInternalData (fffff806`2141a780)
│  │  │  │  │  │  │  │  │  │  └── nt!HalpTimerGetInternalData+0x14 (fffff806`2141a794)
│  │  │  │  │  │  │  │  │  │  ┌── nt!guard_dispatch_icall (fffff806`2162a450)
│  │  │  │  │  │  │  │  │  │  └── nt!HalpTscQueryCounterOrdered+0xa (fffff806`2158adea)
│  │  │  │  │  │  │  │  │  │  ┌── nt!_security_check_cookie (fffff806`215e3750)
│  │  │  │  │  │  │  │  │  │  └── nt!_security_check_cookie+0x14 (fffff806`215e3764)
│  │  │  │  │  │  │  │  │  └── nt!HalpTimerStallExecutionProcessor+0x161 (fffff806`2141a711)
│  │  │  │  │  │  │  │  └── nt!KeStallExecutionProcessor+0x59 (fffff806`21418729)