3: kHyperDbg> x kd_02_8086!*
fffff806`2621a6fc  kd_02_8086!e1000_read_flash_data_ich8lan
fffff806`26214a98  kd_02_8086!e1000_write_nvm_eewr_82571
fffff806`2621a840  kd_02_8086!e1000_read_nvm_ich8lan
fffff806`262187a0  kd_02_8086!e1000_id_led_init_pchlan
fffff806`262272dc  kd_02_8086!ixgbe_set_master_follower_mode
fffff806`262118f0  kd_02_8086!e1000_led_on_82543
fffff806`26207290  kd_02_8086!e1000_clear_hw_cntrs_82575
fffff806`2621c210  kd_02_8086!e1000_validate_nvm_checksum_ich8lan
fffff806`26208980  kd_02_8086!e1000_read_phy_reg_sgmii_82575
fffff806`26209360  kd_02_8086!e1000_set_d0_lplu_state_82580
fffff806`26208ecc  kd_02_8086!e1000_reset_mdicnfg_82580
fffff806`26211ef0  kd_02_8086!e1000_setup_link_82543
fffff806`2620f840  kd_02_8086!e1000_lower_eec_clk
fffff806`2622c770  kd_02_8086!ixgbe_shift_in_eeprom_bits
fffff806`26207738  kd_02_8086!e1000_get_phy_id_82575
fffff806`26211e50  kd_02_8086!e1000_setup_fiber_link_82543
fffff806`2621c480  kd_02_8086!e1000_write_flash_data32_ich8lan
fffff806`262223a0  kd_02_8086!ixgbe_read_i2c_byte_82599
fffff806`262142c0  kd_02_8086!e1000_release_nvm_82571
fffff806`26208a00  kd_02_8086!e1000_release_nvm_82575
fffff806`26219060  kd_02_8086!e1000_init_phy_params_ich8lan
fffff806`2622ea5c  kd_02_8086!ixgbe_read_i2c_byte_generic_int
fffff806`26211160  kd_02_8086!e1000_check_for_fiber_link_82543
fffff806`2621c5c0  kd_02_8086!e1000_write_nvm_ich8lan
fffff806`26232dc4  kd_02_8086!i40e_flex_payload_reg_init
fffff806`262298c0  kd_02_8086!ixgbe_detect_eeprom_page_size_generic
fffff806`26222f64  kd_02_8086!ixgbe_verify_fw_version_82599
fffff806`2621817c  kd_02_8086!e1000_flash_cycle_ich8lan
fffff806`26215f20  kd_02_8086!e1000_setup_led_82541
fffff806`262135f0  kd_02_8086!e1000_get_hw_semaphore_82574
fffff806`262281f0  kd_02_8086!ixgbe_setup_sgmii
fffff806`2621cd60  kd_02_8086!e1000_read_invm_i210
fffff806`26217220  kd_02_8086!e1000_reset_hw_80003es2lan
fffff806`26210c90  kd_02_8086!e1000_led_on_82542
fffff806`26219be0  kd_02_8086!e1000_led_off_ich8lan
fffff806`26213710  kd_02_8086!e1000_init_hw_82571
fffff806`2622de8c  kd_02_8086!ixgbe_i2c_start
fffff806`26210ee0  kd_02_8086!e1000_setup_link_82542
fffff806`26211980  kd_02_8086!e1000_phy_hw_reset_82543
fffff806`26208ae0  kd_02_8086!e1000_reset_hw_82575
fffff806`26217330  kd_02_8086!e1000_setup_copper_link_80003es2lan
fffff806`26222360  kd_02_8086!ixgbe_read_eeprom_buffer_82599
fffff806`26216000  kd_02_8086!e1000_acquire_phy_80003es2lan
fffff806`2621baf0  kd_02_8086!e1000_update_mc_addr_list_pch2lan
fffff806`26217030  kd_02_8086!e1000_power_down_phy_copper_80003es2lan
fffff806`26227030  kd_02_8086!ixgbe_reset_phy_m88
fffff806`2621b49c  kd_02_8086!e1000_set_mdio_slow_mode_hv
fffff806`262130e0  kd_02_8086!e1000_clear_hw_cntrs_80003es2lan
fffff806`26223dfc  kd_02_8086!ixgbe_release_swfw_sync_semaphore
fffff806`2620ffb4  kd_02_8086!e1000_standby_nvm
fffff806`26209ca0  kd_02_8086!e1000_validate_nvm_checksum_i350
fffff806`2621c670  kd_02_8086!e1000_write_smbus_addr
fffff806`262347fc  kd_02_8086!i40e_parse_discover_capabilities
fffff806`26214b70  kd_02_8086!e1000_check_for_link_82541
fffff806`26210970  kd_02_8086!e1000_init_hw_82542
fffff806`26211480  kd_02_8086!e1000_init_hw_82543
fffff806`26212450  kd_02_8086!e1000_init_hw_82540
fffff806`262152f0  kd_02_8086!e1000_init_hw_82541
fffff806`2621c86c  kd_02_8086!e1000_get_hw_semaphore_i210
fffff806`26214810  kd_02_8086!e1000_setup_link_82571
fffff806`26212250  kd_02_8086!e1000_write_vfta_82543
fffff806`262248a0  kd_02_8086!ixgbe_checksum_ptr_x550
fffff806`26226c78  kd_02_8086!ixgbe_reset_cs4227
fffff806`26212b14  kd_02_8086!e1000_set_vco_speed_82540
fffff806`262183d0  kd_02_8086!e1000_get_cfg_done_ich8lan
fffff806`26227a0c  kd_02_8086!ixgbe_setup_ixfi_x550em_x
fffff806`26225a70  kd_02_8086!ixgbe_identify_phy_x550em
fffff806`2621c098  kd_02_8086!e1000_valid_nvm_bank_detect_ich8lan
fffff806`2620b9f8  kd_02_8086!__e1000_read_phy_reg_hv
fffff806`262088e0  kd_02_8086!e1000_read_mac_addr_80003es2lan
fffff806`2620b4d0  kd_02_8086!e1000_set_lan_id_multi_port_pcie
fffff806`2622b164  kd_02_8086!ixgbe_pcie_timeout_poll
fffff806`26220520  kd_02_8086!ixgbe_clear_vfta_82598
fffff806`262184d0  kd_02_8086!e1000_get_link_up_info_ich8lan
fffff806`26218238  kd_02_8086!e1000_flash_cycle_init_ich8lan
fffff806`26209e20  kd_02_8086!e1000_write_phy_reg_sgmii_82575
fffff806`26228154  kd_02_8086!ixgbe_setup_mux_ctl
fffff806`262093d0  kd_02_8086!e1000_set_d3_lplu_state_82580
fffff806`26208a80  kd_02_8086!e1000_release_swfw_sync_80003es2lan
fffff806`26234604  kd_02_8086!i40e_get_media_type
fffff806`26214250  kd_02_8086!e1000_put_hw_semaphore_82574
fffff806`26215800  kd_02_8086!e1000_phy_hw_reset_82541
fffff806`2621a450  kd_02_8086!e1000_rar_set_pch_lpt
fffff806`2621b3f0  kd_02_8086!e1000_set_lplu_state_pchlan
fffff806`26216a80  kd_02_8086!e1000_init_mac_params_80003es2lan
fffff806`2622df28  kd_02_8086!ixgbe_i2c_stop
fffff806`2622eea0  kd_02_8086!ixgbe_read_i2c_sff8472_generic
fffff806`2622d6a4  kd_02_8086!ixgbe_clock_out_i2c_bit
fffff806`26211f68  kd_02_8086!e1000_shift_in_mdi_bits_82543
fffff806`2620fdf0  kd_02_8086!e1000_reload_nvm_generic
fffff806`26214a20  kd_02_8086!e1000_validate_nvm_checksum_82571
fffff806`26214a50  kd_02_8086!e1000_write_nvm_82571
fffff806`26213460  kd_02_8086!e1000_get_hw_semaphore_82571
fffff806`2622d884  kd_02_8086!ixgbe_get_i2c_ack
fffff806`262130e0  kd_02_8086!e1000_clear_hw_cntrs_82571
fffff806`262122f0  kd_02_8086!e1000_clear_hw_cntrs_82541
fffff806`26219858  kd_02_8086!e1000_k1_workaround_lpt_lp
fffff806`26236e38  kd_02_8086!i40e_config_arq_regs
fffff806`26206f50  kd_02_8086!e1000_acquire_nvm_82575
fffff806`26212e50  kd_02_8086!e1000_acquire_nvm_82571
fffff806`26228330  kd_02_8086!ixgbe_supported_sfp_modules_X550em
fffff806`26219aec  kd_02_8086!e1000_kmrn_lock_loss_workaround_ich8lan
fffff806`26236168  kd_02_8086!i40e_set_hmc_context
fffff806`26212a30  kd_02_8086!e1000_reset_hw_82540
fffff806`2621c340  kd_02_8086!e1000_write_flash_byte_ich8lan
fffff806`26213608  kd_02_8086!e1000_get_phy_id_82571
fffff806`262367c0  kd_02_8086!i40e_alloc_arq_bufs
fffff806`26233884  kd_02_8086!i40e_aq_mac_address_read
fffff806`26236928  kd_02_8086!i40e_alloc_asq_bufs
fffff806`2620bf8c  kd_02_8086!e1000_access_phy_wakeup_reg_bm
fffff806`26216d40  kd_02_8086!e1000_init_phy_params_80003es2lan
fffff806`262098f0  kd_02_8086!e1000_shutdown_serdes_link_82575
fffff806`26235490  kd_02_8086!i40e_validate_filter_settings
fffff806`2621adbc  kd_02_8086!e1000_retry_write_flash_byte_ich8lan
fffff806`26225314  kd_02_8086!ixgbe_ext_phy_t_x550em_get_link
fffff806`26208c30  kd_02_8086!e1000_reset_hw_82580
fffff806`26225530  kd_02_8086!ixgbe_get_lasi_ext_t_x550em
fffff806`26221000  kd_02_8086!ixgbe_read_i2c_sff8472_82598
fffff806`26209db0  kd_02_8086!e1000_write_phy_reg_82580
fffff806`262116a0  kd_02_8086!e1000_init_nvm_params_82543
fffff806`26210bb0  kd_02_8086!e1000_init_nvm_params_82542
fffff806`26215520  kd_02_8086!e1000_init_nvm_params_82541
fffff806`26212720  kd_02_8086!e1000_init_nvm_params_82540
fffff806`2622c878  kd_02_8086!ixgbe_shift_out_eeprom_bits
fffff806`26217b10  kd_02_8086!e1000_check_mng_mode_ich8lan
fffff806`2622f490  kd_02_8086!ixgbe_set_i2c_data
fffff806`262161c4  kd_02_8086!e1000_cfg_kmrn_10_100_80003es2lan
fffff806`262122f0  kd_02_8086!e1000_clear_hw_cntrs_82540
fffff806`26236f00  kd_02_8086!i40e_config_asq_regs
fffff806`262171f0  kd_02_8086!e1000_release_phy_80003es2lan
fffff806`26209454  kd_02_8086!e1000_set_sfp_media_type_82575
fffff806`26215b60  kd_02_8086!e1000_reset_hw_82541
fffff806`2622a238  kd_02_8086!ixgbe_get_eeprom_semaphore
fffff806`2620efa8  kd_02_8086!e1000_set_leader_follower_mode
fffff806`262142f0  kd_02_8086!e1000_reset_hw_82571
fffff806`26207160  kd_02_8086!e1000_check_for_link_media_swap
fffff806`262278f8  kd_02_8086!ixgbe_setup_ixfi_x550em
fffff806`262268b0  kd_02_8086!ixgbe_read_i2c_combined_generic
fffff806`2620b94c  kd_02_8086!__e1000_read_kmrn_reg
fffff806`26236628  kd_02_8086!i40e_adminq_init_regs
fffff806`2622e908  kd_02_8086!ixgbe_lower_i2c_clk
fffff806`2621354c  kd_02_8086!e1000_get_hw_semaphore_82573
fffff806`26213ac0  kd_02_8086!e1000_init_nvm_params_82571
fffff806`262202f0  kd_02_8086!ixgbe_check_mac_link_82598
fffff806`26211260  kd_02_8086!e1000_clear_hw_cntrs_82543
fffff806`26207110  kd_02_8086!e1000_check_for_link_82575
fffff806`26224e58  kd_02_8086!ixgbe_enable_eee_x550
fffff806`26210e00  kd_02_8086!e1000_reset_hw_82542
fffff806`26214210  kd_02_8086!e1000_put_hw_semaphore_82571
fffff806`26226bc0  kd_02_8086!ixgbe_write_phy_reg_x550em
fffff806`2622b5a0  kd_02_8086!ixgbe_ready_eeprom
fffff806`26219fa0  kd_02_8086!e1000_phy_is_accessible_pchlan
fffff806`26210910  kd_02_8086!e1000_get_bus_info_82542
fffff806`2621cae0  kd_02_8086!e1000_pll_workaround_i210
fffff806`262096b0  kd_02_8086!e1000_setup_serdes_link_82575
fffff806`2621333c  kd_02_8086!e1000_fix_nvm_checksum_82571
fffff806`26219a08  kd_02_8086!e1000_k1_workaround_lv
fffff806`2621a970  kd_02_8086!e1000_read_nvm_spt
fffff806`26217b40  kd_02_8086!e1000_check_mng_mode_pchlan
fffff806`26209888  kd_02_8086!e1000_sgmii_uses_mdio_82575
fffff806`26214c58  kd_02_8086!e1000_config_dsp_after_link_change_82541
fffff806`26212ea0  kd_02_8086!e1000_check_for_serdes_link_82571
fffff806`26213f08  kd_02_8086!e1000_initialize_hw_bits_82571
fffff806`26211a14  kd_02_8086!e1000_polarity_reversal_workaround_82543
fffff806`26223150  kd_02_8086!ixgbe_write_i2c_byte_82599
fffff806`262213b0  kd_02_8086!ixgbe_set_rxpba_82598
fffff806`2622c9b0  kd_02_8086!ixgbe_standby_eeprom
fffff806`26214150  kd_02_8086!e1000_led_on_82574
fffff806`26207678  kd_02_8086!e1000_get_pcs_speed_and_duplex_82575
fffff806`26210850  kd_02_8086!e1000_clear_hw_cntrs_82542
fffff806`26217ffc  kd_02_8086!e1000_erase_flash_bank_ich8lan
fffff806`2620fcc4  kd_02_8086!e1000_ready_nvm_eeprom
fffff806`262215e0  kd_02_8086!ixgbe_setup_copper_link_82598
fffff806`26222910  kd_02_8086!ixgbe_setup_copper_link_82599
fffff806`26211ca0  kd_02_8086!e1000_reset_hw_82543
fffff806`262286b0  kd_02_8086!ixgbe_write_i2c_combined_generic_unlocked
fffff806`26209ac4  kd_02_8086!e1000_update_nvm_checksum_with_offset
fffff806`2621602c  kd_02_8086!e1000_acquire_swfw_sync_80003es2lan
fffff806`26214850  kd_02_8086!e1000_update_nvm_checksum_82571
fffff806`2620b2b0  kd_02_8086!e1000_rar_set_generic
fffff806`262120d8  kd_02_8086!e1000_shift_out_mdi_bits_82543
fffff806`26217be0  kd_02_8086!e1000_cleanup_led_ich8lan
fffff806`2622d978  kd_02_8086!ixgbe_get_i2c_data
fffff806`2620fe3c  kd_02_8086!e1000_shift_in_eec_bits
fffff806`26218c90  kd_02_8086!e1000_init_mac_params_ich8lan
fffff806`26207590  kd_02_8086!e1000_get_cfg_done_82575
fffff806`262259ac  kd_02_8086!ixgbe_identify_phy_1g
fffff806`2621b060  kd_02_8086!e1000_set_d3_lplu_state_ich8lan
fffff806`26211c10  kd_02_8086!e1000_read_phy_reg_82543
fffff806`2622463c  kd_02_8086!ixgbe_check_cs4227
fffff806`2620b150  kd_02_8086!e1000_acquire_nvm_ich8lan
fffff806`26215410  kd_02_8086!e1000_init_mac_params_82541
fffff806`26212570  kd_02_8086!e1000_init_mac_params_82540
fffff806`26209570  kd_02_8086!e1000_setup_copper_link_82575
fffff806`26211560  kd_02_8086!e1000_init_mac_params_82543
fffff806`26210ab0  kd_02_8086!e1000_init_mac_params_82542
fffff806`26214760  kd_02_8086!e1000_setup_copper_link_82571
fffff806`26228690  kd_02_8086!ixgbe_write_i2c_combined_generic
fffff806`26219c30  kd_02_8086!e1000_led_off_pchlan
fffff806`26208a00  kd_02_8086!e1000_release_nvm_80003es2lan
fffff806`26214c00  kd_02_8086!e1000_cleanup_led_82541
fffff806`26220930  kd_02_8086!ixgbe_get_media_type_82598
fffff806`26226a80  kd_02_8086!ixgbe_read_phy_reg_mdi_22
fffff806`26228974  kd_02_8086!ixgbe_acquire_eeprom
fffff806`262166b0  kd_02_8086!e1000_get_cfg_done_80003es2lan
fffff806`26212950  kd_02_8086!e1000_power_down_phy_copper_82540
fffff806`26212950  kd_02_8086!e1000_power_down_phy_copper_82541
fffff806`262162d0  kd_02_8086!e1000_cfg_on_link_up_80003es2lan
fffff806`26209980  kd_02_8086!e1000_update_nvm_checksum_82580
fffff806`2621a604  kd_02_8086!e1000_read_flash_data32_ich8lan
fffff806`2621d33c  kd_02_8086!e1000_write_nvm_srwr
fffff806`26216730  kd_02_8086!e1000_get_link_up_info_80003es2lan
fffff806`2622b6cc  kd_02_8086!ixgbe_release_eeprom_semaphore
fffff806`262192f0  kd_02_8086!e1000_init_phy_params_pchlan
fffff806`262185b0  kd_02_8086!e1000_hv_phy_workarounds_ich8lan
fffff806`262167b0  kd_02_8086!e1000_init_hw_80003es2lan
fffff806`262121d0  kd_02_8086!e1000_write_phy_reg_82543
fffff806`26207000  kd_02_8086!e1000_acquire_phy_82575
fffff806`2621833c  kd_02_8086!e1000_gate_hw_phy_config_ich8lan
fffff806`262087a0  kd_02_8086!e1000_phy_hw_reset_sgmii_82575
fffff806`26224f60  kd_02_8086!ixgbe_enable_lasi_ext_t_x550em
fffff806`26210cd0  kd_02_8086!e1000_rar_set_82542
fffff806`2621ae54  kd_02_8086!e1000_retry_write_flash_dword_ich8lan
fffff806`2621c040  kd_02_8086!e1000_valid_led_default_ich8lan
fffff806`26217c60  kd_02_8086!e1000_clear_hw_cntrs_ich8lan
fffff806`2620f8e4  kd_02_8086!e1000_raise_eec_clk
fffff806`262360a8  kd_02_8086!i40e_remove_pd_page
fffff806`26207650  kd_02_8086!e1000_get_link_up_info_82575
fffff806`2620f10c  kd_02_8086!e1000_wait_autoneg
fffff806`26212980  kd_02_8086!e1000_read_mac_addr_82540
fffff806`26210d60  kd_02_8086!e1000_read_mac_addr_82542
fffff806`26211940  kd_02_8086!e1000_phy_force_speed_duplex_82543
fffff806`2621c740  kd_02_8086!e1000_acquire_nvm_i210
fffff806`26208a80  kd_02_8086!e1000_release_swfw_sync_82575
fffff806`26216620  kd_02_8086!e1000_get_cable_length_80003es2lan
fffff806`262205d0  kd_02_8086!ixgbe_clear_vmdq_82598
fffff806`2621ced4  kd_02_8086!e1000_read_invm_word_i210
fffff806`26217b70  kd_02_8086!e1000_check_reset_block_ich8lan
fffff806`26227390  kd_02_8086!ixgbe_set_mdio_speed
fffff806`2622d5b0  kd_02_8086!ixgbe_clock_in_i2c_byte
fffff806`26208910  kd_02_8086!e1000_read_phy_reg_82580
fffff806`26220870  kd_02_8086!ixgbe_get_link_capabilities_82598
fffff806`262217f8  kd_02_8086!ixgbe_start_mac_link_82598
fffff806`262088e0  kd_02_8086!e1000_read_mac_addr_82575
fffff806`26214290  kd_02_8086!e1000_read_mac_addr_82571
fffff806`2620b870  kd_02_8086!e1000_validate_mdi_setting_generic
fffff806`262160e0  kd_02_8086!e1000_cfg_kmrn_1000_80003es2lan
fffff806`2620bb54  kd_02_8086!__e1000_read_phy_reg_igp
fffff806`2621c820  kd_02_8086!e1000_get_cfg_done_i210
fffff806`2621d240  kd_02_8086!e1000_valid_led_default_i210
fffff806`26218ef0  kd_02_8086!e1000_init_nvm_params_ich8lan
fffff806`2621b680  kd_02_8086!e1000_setup_copper_link_pch_lpt
fffff806`26211368  kd_02_8086!e1000_config_mac_to_phy_82543
fffff806`26207540  kd_02_8086!e1000_config_collision_dist_82575
fffff806`2621aef0  kd_02_8086!e1000_set_d0_lplu_state_ich8lan
fffff806`26236fc4  kd_02_8086!i40e_free_asq_bufs
fffff806`2620bf00  kd_02_8086!e1000_access_phy_debug_regs_hv
fffff806`2621ab80  kd_02_8086!e1000_release_swflag_ich8lan
fffff806`2621ca10  kd_02_8086!e1000_init_nvm_params_i210
fffff806`26209bf0  kd_02_8086!e1000_validate_nvm_checksum_82580
fffff806`2621abc0  kd_02_8086!e1000_reset_hw_ich8lan
fffff806`26213840  kd_02_8086!e1000_init_mac_params_82571
fffff806`262079b0  kd_02_8086!e1000_init_mac_params_82575
fffff806`26212c50  kd_02_8086!e1000_setup_copper_link_82540
fffff806`26215e60  kd_02_8086!e1000_setup_copper_link_82541
fffff806`26211d70  kd_02_8086!e1000_setup_copper_link_82543
fffff806`2620bbfc  kd_02_8086!__e1000_write_kmrn_reg
fffff806`262183a0  kd_02_8086!e1000_get_bus_info_ich8lan
fffff806`26219db4  kd_02_8086!e1000_oem_bits_config_ich8lan
fffff806`26210fa0  kd_02_8086!e1000_check_for_copper_link_82543
fffff806`2621bbf0  kd_02_8086!e1000_update_nvm_checksum_ich8lan
fffff806`2620fee4  kd_02_8086!e1000_shift_out_eec_bits
fffff806`2622d730  kd_02_8086!ixgbe_clock_out_i2c_byte
fffff806`262074e0  kd_02_8086!e1000_clear_vfta_i350
fffff806`2621be20  kd_02_8086!e1000_update_nvm_checksum_spt
fffff806`26213290  kd_02_8086!e1000_clear_vfta_82571
fffff806`26209a50  kd_02_8086!e1000_update_nvm_checksum_i350
fffff806`26217070  kd_02_8086!e1000_read_kmrn_reg_80003es2lan
fffff806`262141c0  kd_02_8086!e1000_power_down_phy_copper_82571
fffff806`26208810  kd_02_8086!e1000_power_down_phy_copper_82575
fffff806`26226bd0  kd_02_8086!ixgbe_release_swfw_sync_X550a
fffff806`26223c04  kd_02_8086!ixgbe_poll_flash_update_done_X540
fffff806`2622fb1c  kd_02_8086!ixgbe_write_i2c_byte_generic_int
fffff806`26213400  kd_02_8086!e1000_get_cfg_done_82571
fffff806`2621b7c8  kd_02_8086!e1000_sw_lcd_config_ich8lan
fffff806`26221630  kd_02_8086!ixgbe_setup_mac_link_82598
fffff806`2622634c  kd_02_8086!ixgbe_iosf_wait
fffff806`26215fb0  kd_02_8086!e1000_acquire_nvm_80003es2lan
fffff806`26220e90  kd_02_8086!ixgbe_read_i2c_phy_82598
fffff806`26213c70  kd_02_8086!e1000_init_phy_params_82571
fffff806`26207ed0  kd_02_8086!e1000_init_phy_params_82575
fffff806`26201460  kd_02_8086!e1000_release_nvm_ich8lan
fffff806`26228830  kd_02_8086!ixgbe_write_phy_reg_mdi_22
fffff806`262150d0  kd_02_8086!e1000_get_cable_length_igp_82541
fffff806`2620a6d0  kd_02_8086!e1000_config_collision_dist_generic
fffff806`262270ac  kd_02_8086!ixgbe_reset_phy_m88_nolock
fffff806`262146b0  kd_02_8086!e1000_set_d3_lplu_state_82574
fffff806`2620be58  kd_02_8086!__e1000_write_phy_reg_igp
fffff806`2622b2b0  kd_02_8086!ixgbe_read_eeprom_buffer_bit_bang
fffff806`2622b624  kd_02_8086!ixgbe_release_eeprom
fffff806`26237a6c  kd_02_8086!i40e_poll_sr_srctl_done_bit
fffff806`26219544  kd_02_8086!e1000_init_phy_workarounds_pchlan
fffff806`26217650  kd_02_8086!e1000_check_for_copper_link_ich8lan
fffff806`26209d14  kd_02_8086!e1000_validate_nvm_checksum_with_offset
fffff806`26221020  kd_02_8086!ixgbe_reset_hw_82598
fffff806`2621b510  kd_02_8086!e1000_setup_copper_link_ich8lan
fffff806`26236108  kd_02_8086!i40e_remove_sd_bp
fffff806`26219d20  kd_02_8086!e1000_led_on_pchlan
fffff806`26208a30  kd_02_8086!e1000_release_phy_82575
fffff806`26218940  kd_02_8086!e1000_init_hw_ich8lan
fffff806`26209b70  kd_02_8086!e1000_valid_led_default_82575
fffff806`26214990  kd_02_8086!e1000_valid_led_default_82571
fffff806`26216e90  kd_02_8086!e1000_phy_force_speed_duplex_80003es2lan
fffff806`26219f50  kd_02_8086!e1000_phy_hw_reset_ich8lan
fffff806`26213090  kd_02_8086!e1000_check_mng_mode_82574
fffff806`26212da0  kd_02_8086!e1000_setup_fiber_serdes_link_82540
fffff806`2621633c  kd_02_8086!e1000_copper_link_setup_gg82563_80003es2lan
fffff806`2621d060  kd_02_8086!e1000_release_nvm_i210
fffff806`2621b6d0  kd_02_8086!e1000_setup_led_pchlan
fffff806`262268d0  kd_02_8086!ixgbe_read_i2c_combined_generic_unlocked
fffff806`26215200  kd_02_8086!e1000_get_link_up_info_82541
fffff806`26217480  kd_02_8086!e1000_write_nvm_80003es2lan
fffff806`2620bc98  kd_02_8086!__e1000_write_phy_reg_hv
fffff806`26217c30  kd_02_8086!e1000_cleanup_led_pchlan
fffff806`26219708  kd_02_8086!e1000_k1_gig_workaround_hv
fffff806`26210c50  kd_02_8086!e1000_led_off_82542
fffff806`262118a0  kd_02_8086!e1000_led_off_82543
fffff806`26222330  kd_02_8086!ixgbe_read_eeprom_82599
fffff806`26217100  kd_02_8086!e1000_read_phy_reg_gg82563_80003es2lan
fffff806`26207050  kd_02_8086!e1000_acquire_swfw_sync_82575
fffff806`262147d0  kd_02_8086!e1000_setup_fiber_serdes_link_82571
fffff806`262174a0  kd_02_8086!e1000_write_phy_reg_gg82563_80003es2lan
fffff806`26224a04  kd_02_8086!ixgbe_disable_eee_x550
fffff806`2621a150  kd_02_8086!e1000_post_phy_reset_ich8lan
fffff806`26227c80  kd_02_8086!ixgbe_setup_m88
fffff806`26216c10  kd_02_8086!e1000_init_nvm_params_80003es2lan
fffff806`262237ec  kd_02_8086!ixgbe_get_swfw_sync_semaphore
fffff806`2621cd00  kd_02_8086!e1000_pool_flash_update_done_i210
fffff806`26217030  kd_02_8086!e1000_power_down_phy_copper_ich8lan
fffff806`26226bc0  kd_02_8086!ixgbe_read_phy_reg_x550em
fffff806`26212830  kd_02_8086!e1000_init_phy_params_82540
fffff806`26215700  kd_02_8086!e1000_init_phy_params_82541
fffff806`26210c30  kd_02_8086!e1000_init_phy_params_82542
fffff806`26211710  kd_02_8086!e1000_init_phy_params_82543
fffff806`26217590  kd_02_8086!e1000_acquire_swflag_ich8lan
fffff806`26219cd0  kd_02_8086!e1000_led_on_ich8lan
fffff806`26227b98  kd_02_8086!ixgbe_setup_kr_speed_x550em
fffff806`2622e970  kd_02_8086!ixgbe_raise_i2c_clk
fffff806`26217404  kd_02_8086!e1000_write_kmrn_reg_80003es2lan
fffff806`26214660  kd_02_8086!e1000_set_d0_lplu_state_82574
fffff806`26209210  kd_02_8086!e1000_set_d0_lplu_state_82575
fffff806`262144e0  kd_02_8086!e1000_set_d0_lplu_state_82571
fffff806`26215cd0  kd_02_8086!e1000_set_d3_lplu_state_82541
fffff806`262243a0  kd_02_8086!ixgbe_acquire_swfw_sync_X550a
fffff806`26208da8  kd_02_8086!e1000_reset_init_script_82575
fffff806`2621b700  kd_02_8086!e1000_setup_link_ich8lan
fffff806`2621586c  kd_02_8086!e1000_phy_init_script_82541
fffff806`26208860  kd_02_8086!e1000_power_up_serdes_link_82575
fffff806`2622d084  kd_02_8086!ixgbe_write_eeprom_buffer_bit_bang
fffff806`2621ba08  kd_02_8086!e1000_toggle_lanphypc_pch_lpt
fffff806`2621a310  kd_02_8086!e1000_rar_set_pch2lan
fffff806`26256018  kd_02_8086!_guard_xfg_dispatch_icall_fptr
fffff806`262105e4  kd_02_8086!e1000_enable_mng_pass_thru
fffff806`26224060  kd_02_8086!ixgbe_update_eeprom_checksum_X540
fffff806`26202f00  kd_02_8086!e1000_UNDI_RecFilter
fffff806`26203ed0  kd_02_8086!e1000_ClearRegBits
fffff806`2621eafc  kd_02_8086!XgbeReceive
fffff806`262238a0  kd_02_8086!ixgbe_init_eeprom_params_X540
fffff806`2620b514  kd_02_8086!e1000_set_pcie_no_snoop_generic
fffff806`26201030  kd_02_8086!KdGetPacketAddress
fffff806`2621fbd8  kd_02_8086!ixgbe_flap_tx_laser
fffff806`26233054  kd_02_8086!i40e_aq_add_rem_control_packet_filter
fffff806`2620a270  kd_02_8086!e1000_check_for_serdes_link_generic
fffff806`26204554  kd_02_8086!e1000_LanFunction
fffff806`2624fe00  kd_02_8086!gI40eUndiPrivateData
fffff806`2621fe70  kd_02_8086!ixgbe_release_swfw_semaphore
fffff806`26203c9c  kd_02_8086!e1000_write_pci_cfg
fffff806`26227690  kd_02_8086!ixgbe_setup_fc_x550a
fffff806`2622db50  kd_02_8086!ixgbe_get_sfp_init_sequence_offsets
fffff806`2621fb64  kd_02_8086!ixgbe_disable_rx
fffff806`2621e0c0  kd_02_8086!UndiStatistics
fffff806`26201620  kd_02_8086!KdNetUndiVirtualToPhysical
fffff806`26226e50  kd_02_8086!ixgbe_reset_hw_X550em
fffff806`262286d0  kd_02_8086!ixgbe_write_iosf_sb_reg_x550
fffff806`262064bc  kd_02_8086!e1000_reset_hw
fffff806`2622dae0  kd_02_8086!ixgbe_get_phy_type_from_id
fffff806`26204e64  kd_02_8086!e1000_SetInterruptState
fffff806`26243a88  kd_02_8086!_security_cookie_complement
fffff806`26203b58  kd_02_8086!e1000_pci_set_mwi
fffff806`2620b090  kd_02_8086!e1000_led_off_generic
fffff806`26237fec  kd_02_8086!i40e_add_sd_table_entry
fffff806`262378c4  kd_02_8086!i40e_acquire_nvm
fffff806`2623212c  kd_02_8086!i40eDisableVlanStripping
fffff806`26231594  kd_02_8086!I40eInitialize
fffff806`2620ec58  kd_02_8086!e1000_read_phy_reg_mdic
fffff806`2622ad80  kd_02_8086!ixgbe_init_uta_tables_generic
fffff806`26206350  kd_02_8086!e1000_get_bus_info
fffff806`262444c0  kd_02_8086!gArqDmaMemory
fffff806`2620f220  kd_02_8086!e1000_write_phy_reg_bm
fffff806`26221a30  kd_02_8086!ixgbe_flap_tx_laser_multispeed_fiber
fffff806`26243ca0  kd_02_8086!ixgbe_pxe_memptr
fffff806`26228790  kd_02_8086!ixgbe_write_iosf_sb_reg_x550a
fffff806`2620f320  kd_02_8086!e1000_write_phy_reg_bm2
fffff806`26225500  kd_02_8086!ixgbe_get_bus_info_X550em
fffff806`26233c24  kd_02_8086!i40e_aq_request_resource
fffff806`26206370  kd_02_8086!e1000_get_speed_and_duplex
fffff806`262441c0  kd_02_8086!gAsqDmaMemory
fffff806`262241c0  kd_02_8086!ixgbe_validate_eeprom_checksum_X540
fffff806`26243c38  kd_02_8086!UndiApiEntry
fffff806`26230880  kd_02_8086!i40e_UndiRecFilter
fffff806`2620cca0  kd_02_8086!e1000_get_cable_length_igp_2
fffff806`2621ec90  kd_02_8086!XgbeReceiveDisable
fffff806`26209ea0  kd_02_8086!e1000_write_vfta_i350
fffff806`2622e000  kd_02_8086!ixgbe_identify_module_generic
fffff806`2622a6d8  kd_02_8086!ixgbe_host_interface_command
fffff806`26220b50  kd_02_8086!ixgbe_init_ops_82598
fffff806`262384e0  kd_02_8086!guard_dispatch_icall_nop
fffff806`2621e190  kd_02_8086!UndiStatus
fffff806`26230d40  kd_02_8086!i40e_UndiReceive
fffff806`26224030  kd_02_8086!ixgbe_start_hw_X540
fffff806`2623632c  kd_02_8086!i40e_set_lan_rx_queue_context
fffff806`26229a20  kd_02_8086!ixgbe_disable_mc_generic
fffff806`2622ef70  kd_02_8086!ixgbe_read_phy_reg_mdi
fffff806`262014dc  kd_02_8086!GetDevicePciDataByOffset
fffff806`26201754  kd_02_8086!SetDevicePciDataByOffset
fffff806`26237760  kd_02_8086!ReadDataFromNvmModule
fffff806`2622da20  kd_02_8086!ixgbe_get_phy_firmware_version_tnx
fffff806`262283a0  kd_02_8086!ixgbe_update_eeprom_checksum_X550
fffff806`2620d9c0  kd_02_8086!e1000_phy_force_speed_duplex_ife
fffff806`26243c60  kd_02_8086!e1000_pxe_memptr
fffff806`2620a714  kd_02_8086!e1000_config_fc_after_link_up_generic
fffff806`26225bd0  kd_02_8086!ixgbe_init_eeprom_params_X550
fffff806`2620d500  kd_02_8086!e1000_get_phy_info_m88
fffff806`2621fa54  kd_02_8086!XgbeIsDeviceIdSupported
fffff806`2621fcfc  kd_02_8086!ixgbe_init_shared_code
fffff806`262049cc  kd_02_8086!e1000_SetFilter
fffff806`2620a9a8  kd_02_8086!e1000_disable_pcie_master_generic
fffff806`26233ab0  kd_02_8086!i40e_aq_release_resource
fffff806`26203ab4  kd_02_8086!e1000_OutDword
fffff806`2623256c  kd_02_8086!i40eFreeTxBuffers
fffff806`262039e8  kd_02_8086!e1000_FlashWrite16
fffff806`26203dfc  kd_02_8086!uSecDelay
fffff806`26223780  kd_02_8086!ixgbe_get_media_type_X540
fffff806`2622d36c  kd_02_8086!ixgbe_write_eewr_buffer_generic
fffff806`2622af30  kd_02_8086!ixgbe_led_off_generic
fffff806`262201f4  kd_02_8086!ixgbe_setup_phy_link
fffff806`26230610  kd_02_8086!i40e_UndiInitialize
fffff806`26221334  kd_02_8086!ixgbe_set_pcie_completion_timeout
fffff806`2620d64c  kd_02_8086!e1000_get_phy_type_from_id
fffff806`26202398  kd_02_8086!WriteDeviceMemory
fffff806`26226620  kd_02_8086!ixgbe_read_ee_hostif_X550
fffff806`26234de4  kd_02_8086!i40e_pre_tx_queue_cfg
fffff806`2621da10  kd_02_8086!UndiGetInitInfo
fffff806`26223250  kd_02_8086!prot_autoc_read_82599
fffff806`262078e0  kd_02_8086!e1000_init_hw_82575
fffff806`262031a0  kd_02_8086!e1000_UNDI_Statistics
fffff806`2621dc80  kd_02_8086!UndiReset
fffff806`262256a8  kd_02_8086!ixgbe_get_lcd_t_x550em
fffff806`26224290  kd_02_8086!ixgbe_write_eewr_X540
fffff806`2623338c  kd_02_8086!i40e_aq_get_firmware_version
fffff806`2620ebf0  kd_02_8086!e1000_read_phy_reg_m88
fffff806`26225970  kd_02_8086!ixgbe_handle_lasi_ext_t_x550em
fffff806`2622ec00  kd_02_8086!ixgbe_read_i2c_byte_generic_unlocked
fffff806`26218520  kd_02_8086!e1000_gig_downshift_workaround_ich8lan
fffff806`2621677c  kd_02_8086!e1000_init_function_pointers_80003es2lan
fffff806`26202e00  kd_02_8086!e1000_UNDI_Shutdown
fffff806`26228440  kd_02_8086!ixgbe_validate_eeprom_checksum_X550
fffff806`262045e8  kd_02_8086!XgbeMemCopy
fffff806`2620ed50  kd_02_8086!e1000_read_sfp_data_byte
fffff806`2622a140  kd_02_8086!ixgbe_find_vlvf_slot
fffff806`2620c1d0  kd_02_8086!e1000_check_polarity_igp
fffff806`26256008  kd_02_8086!_guard_dispatch_icall_fptr
fffff806`26203f84  kd_02_8086!e1000_FirstTimeInit
fffff806`26221f28  kd_02_8086!ixgbe_init_ops_82599
fffff806`2620d0d0  kd_02_8086!e1000_get_cfg_done_generic
fffff806`26220d00  kd_02_8086!ixgbe_init_phy_ops_82598
fffff806`26202a40  kd_02_8086!e1000_UNDI_Start
fffff806`26230b20  kd_02_8086!i40e_UndiStatus
fffff806`26233e0c  kd_02_8086!i40e_aq_set_mac_config
fffff806`26232730  kd_02_8086!i40eReadSwitchConfiguration
fffff806`2620cb90  kd_02_8086!e1000_enable_phy_wakeup_reg_access_bm
fffff806`2620af20  kd_02_8086!e1000_init_mac_ops_generic
fffff806`2620ed30  kd_02_8086!e1000_read_phy_reg_page_hv
fffff806`26202af0  kd_02_8086!e1000_UNDI_Stop
fffff806`26230830  kd_02_8086!i40e_UndiInterrupt
fffff806`2622c0a0  kd_02_8086!ixgbe_set_vlvf_generic
fffff806`26235dd0  kd_02_8086!i40e_init_lan_hmc
fffff806`2622f810  kd_02_8086!ixgbe_setup_phy_link_speed_generic
fffff806`26230750  kd_02_8086!i40e_UndiReset
fffff806`26243dc0  kd_02_8086!gAsqCmdBuffer
fffff806`26227250  kd_02_8086!ixgbe_set_ethertype_anti_spoofing_X550
fffff806`26221560  kd_02_8086!ixgbe_set_vmdq_82598
fffff806`2621a5b0  kd_02_8086!e1000_read_emi_reg_locked
fffff806`26237d70  kd_02_8086!i40e_read_nvm_word
fffff806`262247e0  kd_02_8086!ixgbe_check_link_t_X550em
fffff806`2624db00  kd_02_8086!e1000_UNDI32DeviceList
fffff806`2620df18  kd_02_8086!e1000_phy_has_link_generic
fffff806`26220090  kd_02_8086!ixgbe_set_rar
fffff806`26233914  kd_02_8086!i40e_aq_mac_address_write
fffff806`2620eaa0  kd_02_8086!e1000_read_phy_reg_hv_locked
fffff806`2623568c  kd_02_8086!i40e_clear_lan_rx_queue_context
fffff806`2621c2e8  kd_02_8086!e1000_write_emi_reg_locked
fffff806`26224450  kd_02_8086!ixgbe_acquire_swfw_sync_X550em
fffff806`262353f8  kd_02_8086!i40e_update_link_info
fffff806`26238ac0  kd_02_8086!_memset_spec_ermsb
fffff806`26202c90  kd_02_8086!e1000_UNDI_Initialize
fffff806`26223790  kd_02_8086!ixgbe_get_supported_physical_layer_X540
fffff806`2622b830  kd_02_8086!ixgbe_set_lan_id_multi_port_pcie
fffff806`26237b5c  kd_02_8086!i40e_read_nvm_buffer
fffff806`262253a0  kd_02_8086!ixgbe_fc_autoneg_x550a
fffff806`2621fc50  kd_02_8086!ixgbe_get_mac_addr
fffff806`26202e50  kd_02_8086!e1000_UNDI_Interrupt
fffff806`26228fd0  kd_02_8086!ixgbe_clear_hw_cntrs_generic
fffff806`2621fc9c  kd_02_8086!ixgbe_identify_phy
fffff806`2620e9f0  kd_02_8086!e1000_read_phy_reg_gs40g
fffff806`262295e4  kd_02_8086!ixgbe_clear_tx_pending
fffff806`2622d580  kd_02_8086!ixgbe_check_reset_blocked
fffff806`26223034  kd_02_8086!ixgbe_verify_lesm_fw_enabled_82599
fffff806`262036e0  kd_02_8086!e1000_UNDI_APIEntry
fffff806`262387c0  kd_02_8086!memcpy
fffff806`2621dd20  kd_02_8086!UndiInterrupt
fffff806`2621c97c  kd_02_8086!e1000_init_function_pointers_i210
fffff806`2620b8a0  kd_02_8086!e1000_write_8bit_ctrl_reg_generic
fffff806`2621f0cc  kd_02_8086!XgbeShutdown
fffff806`262221a0  kd_02_8086!ixgbe_init_phy_ops_82599
fffff806`2621d400  kd_02_8086!e1000_write_nvm_srwr_i210
fffff806`262078a4  kd_02_8086!e1000_init_function_pointers_82575
fffff806`262228a0  kd_02_8086!ixgbe_set_hard_rate_select_speed
fffff806`2620b570  kd_02_8086!e1000_setup_fiber_serdes_link_generic
fffff806`26228cc0  kd_02_8086!ixgbe_blink_led_stop_generic
fffff806`26230cd0  kd_02_8086!i40e_UndiTransmit
fffff806`2621ddd0  kd_02_8086!UndiRecFilter
fffff806`26231420  kd_02_8086!I40eInitHw
fffff806`26243cb0  kd_02_8086!Active10GbitInterfaces
fffff806`2621d780  kd_02_8086!InitializeXGigUndiDriver
fffff806`262303d0  kd_02_8086!i40e_UndiStart
fffff806`26256020  kd_02_8086!_guard_xfg_table_dispatch_icall_fptr
fffff806`2621df80  kd_02_8086!UndiStnAddr
fffff806`262062ac  kd_02_8086!IsLegacy1GServerDeviceIdSupported
fffff806`2620f4a0  kd_02_8086!e1000_write_phy_reg_hv_locked
fffff806`26232b34  kd_02_8086!i40eTransmit
fffff806`262101e0  kd_02_8086!e1000_validate_nvm_checksum_generic
fffff806`2620641c  kd_02_8086!e1000_rar_set
fffff806`2621e180  kd_02_8086!i40e_UndiStatistics
fffff806`2621d7c4  kd_02_8086!XgbeInitializePxeStruct
fffff806`26232f00  kd_02_8086!i40e_add_filter_to_drop_tx_flow_control_frames
fffff806`262022ac  kd_02_8086!WriteDeviceIo
fffff806`26203a68  kd_02_8086!e1000_InDword
fffff806`262339d0  kd_02_8086!i40e_aq_read_nvm
fffff806`26243cf0  kd_02_8086!Active40GbitInterfaces
fffff806`2620ace0  kd_02_8086!e1000_get_speed_and_duplex_copper_generic
fffff806`262033b0  kd_02_8086!e1000_UNDI_Status
fffff806`26237ec8  kd_02_8086!i40e_add_pd_table_entry
fffff806`262387c0  kd_02_8086!memmove
fffff806`2620f65c  kd_02_8086!e1000_write_phy_reg_mdic
fffff806`262025c0  kd_02_8086!GigUndiDriverSupported
fffff806`2622a4b4  kd_02_8086!ixgbe_get_pcie_msix_count_generic
fffff806`2620dbd0  kd_02_8086!e1000_phy_force_speed_duplex_m88
fffff806`26230dc0  kd_02_8086!i40eUndiApiEntry
fffff806`26237be4  kd_02_8086!i40e_read_nvm_buffer_aq
fffff806`26203af8  kd_02_8086!e1000_PciFlush
fffff806`2624a7c8  kd_02_8086!KdNetWaitForTxPacketFailed
fffff806`2621fbb4  kd_02_8086!ixgbe_enable_rx
fffff806`262274b0  kd_02_8086!ixgbe_setup_eee_X550
fffff806`26202480  kd_02_8086!GigUndiDriverStart
fffff806`262107cc  kd_02_8086!e1000_mng_enable_host_if_generic
fffff806`2623836c  kd_02_8086!_GSHandlerCheckCommon
fffff806`262227c0  kd_02_8086!ixgbe_reset_pipeline_82599
fffff806`26202dc0  kd_02_8086!e1000_UNDI_Reset
fffff806`26238104  kd_02_8086!i40e_prep_remove_pd_page
fffff806`26210420  kd_02_8086!e1000_write_nvm_spi
fffff806`2622ce40  kd_02_8086!ixgbe_update_uc_addr_list_generic
fffff806`262015b0  kd_02_8086!KdNetUndiMemIO
fffff806`262346ac  kd_02_8086!i40e_init_shared_code
fffff806`2621d2c0  kd_02_8086!e1000_validate_nvm_checksum_i210
fffff806`2621fa88  kd_02_8086!ixgbe_acquire_swfw_semaphore
fffff806`26238500  kd_02_8086!guard_xfg_dispatch_icall_nop
fffff806`2621fd7c  kd_02_8086!ixgbe_init_uta_tables
fffff806`26238c80  kd_02_8086!_memset_spec_plain
fffff806`262200e8  kd_02_8086!ixgbe_set_vfta
fffff806`2620c964  kd_02_8086!e1000_copper_link_setup_m88_gen2
fffff806`2620dac0  kd_02_8086!e1000_phy_force_speed_duplex_igp
fffff806`26210934  kd_02_8086!e1000_init_function_pointers_82542
fffff806`2621eed4  kd_02_8086!XgbeSetFilter
fffff806`26229a50  kd_02_8086!ixgbe_disable_pcie_master
fffff806`2622afa0  kd_02_8086!ixgbe_led_on_generic
fffff806`2620f880  kd_02_8086!e1000_poll_eerd_eewr_done
fffff806`26227540  kd_02_8086!ixgbe_setup_fc_X550em
fffff806`26234e7c  kd_02_8086!i40e_read_rx_ctl
fffff806`26203e98  kd_02_8086!RxEnable
fffff806`26201550  kd_02_8086!KdNetUNDIMapMem
fffff806`2622c210  kd_02_8086!ixgbe_set_vmdq_generic
fffff806`2620f1d0  kd_02_8086!e1000_write_kmrn_reg_locked
fffff806`262235a0  kd_02_8086!ixgbe_blink_led_stop_X540
fffff806`26221980  kd_02_8086!ixgbe_enable_rx_dma_82599
fffff806`26220640  kd_02_8086!ixgbe_enable_rx_dma_82598
fffff806`26234024  kd_02_8086!i40e_aq_set_vsi_broadcast
fffff806`262044b8  kd_02_8086!e1000_Initialize
fffff806`2621fae0  kd_02_8086!ixgbe_clear_vfta
fffff806`2622b968  kd_02_8086!ixgbe_set_mta
fffff806`26203824  kd_02_8086!DelayInMicroseconds
fffff806`2621ee50  kd_02_8086!XgbeReset
fffff806`2621ea74  kd_02_8086!XgbePciInit
fffff806`262386c0  kd_02_8086!_memset_repmovs
fffff806`262265c4  kd_02_8086!ixgbe_put_phy_token
fffff806`262258c0  kd_02_8086!ixgbe_get_supported_physical_layer_X550em
fffff806`2621ea44  kd_02_8086!XgbeOutDword
fffff806`26229f60  kd_02_8086!ixgbe_fc_enable_generic
fffff806`26233d84  kd_02_8086!i40e_aq_rx_ctl_write_register
fffff806`26223100  kd_02_8086!ixgbe_write_analog_reg8_82599
fffff806`262218c0  kd_02_8086!ixgbe_write_analog_reg8_82598
fffff806`262342e4  kd_02_8086!i40e_check_asq_alive
fffff806`2622d200  kd_02_8086!ixgbe_write_eeprom_buffer_bit_bang_generic
fffff806`262356c8  kd_02_8086!i40e_clear_lan_tx_queue_context
fffff806`2622f890  kd_02_8086!ixgbe_setup_phy_link_tnx
fffff806`2624a7d8  kd_02_8086!KdNetData
fffff806`2622d4b0  kd_02_8086!prot_autoc_write_generic
fffff806`26232024  kd_02_8086!i40eClearFilter
fffff806`26223640  kd_02_8086!ixgbe_calc_eeprom_checksum_X540
fffff806`2620f070  kd_02_8086!e1000_set_page_igp
fffff806`2620c150  kd_02_8086!e1000_check_polarity_ife
fffff806`2622e7e0  kd_02_8086!ixgbe_init_phy_ops_generic
fffff806`2621efc8  kd_02_8086!XgbeSetMcastList
fffff806`2620ad5c  kd_02_8086!e1000_hash_mc_addr_generic
fffff806`262297a0  kd_02_8086!ixgbe_clear_vmdq_generic
fffff806`26237cf8  kd_02_8086!i40e_read_nvm_buffer_srctl
fffff806`2620e930  kd_02_8086!e1000_read_phy_reg_bm2
fffff806`262219e0  kd_02_8086!ixgbe_enable_tx_laser_multispeed_fiber
fffff806`2620ab80  kd_02_8086!e1000_get_bus_info_pcie_generic
fffff806`2621ef78  kd_02_8086!XgbeSetInterruptState
fffff806`2620cdd0  kd_02_8086!e1000_get_cable_length_m88
fffff806`2620aa20  kd_02_8086!e1000_force_mac_fc_generic
fffff806`26211444  kd_02_8086!e1000_init_function_pointers_82543
fffff806`26227400  kd_02_8086!ixgbe_set_source_address_pruning_X550
fffff806`262257b0  kd_02_8086!ixgbe_get_media_type_X550em
fffff806`2620d748  kd_02_8086!e1000_init_phy_ops_generic
fffff806`2620b680  kd_02_8086!e1000_setup_link_generic
fffff806`26227c50  kd_02_8086!ixgbe_setup_kr_x550em
fffff806`2620b610  kd_02_8086!e1000_setup_led_generic
fffff806`2620c054  kd_02_8086!e1000_check_downshift_generic
fffff806`2622e130  kd_02_8086!ixgbe_identify_qsfp_module_generic
fffff806`2621e180  kd_02_8086!UndiNVData
fffff806`2620e7a8  kd_02_8086!e1000_read_kmrn_reg_generic
fffff806`26206f00  kd_02_8086!e1000_write_nvm
fffff806`262063f0  kd_02_8086!e1000_init_phy_params
fffff806`26225c30  kd_02_8086!ixgbe_init_ext_t_x550em
fffff806`2622c560  kd_02_8086!ixgbe_setup_mac_link_multispeed_fiber
fffff806`26229d10  kd_02_8086!ixgbe_enable_sec_rx_path_generic
fffff806`262315e4  kd_02_8086!I40eIsLinkUp
fffff806`2621d70c  kd_02_8086!InitUndiPxeUpdate
fffff806`2620eb90  kd_02_8086!e1000_read_phy_reg_igp_locked
fffff806`26214718  kd_02_8086!e1000_set_laa_state_82571
fffff806`26230028  kd_02_8086!CalcI40eContextSize
fffff806`26201f9c  kd_02_8086!UndiReleaseRxPacket
fffff806`2622ca44  kd_02_8086!ixgbe_start_hw_gen2
fffff806`26243330  kd_02_8086!i40e_branding_table
fffff806`26237624  kd_02_8086!EepromReadPortnumValues
fffff806`2622eed0  kd_02_8086!ixgbe_read_phy_reg_generic
fffff806`26206cf8  kd_02_8086!e1000_setup_init_funcs
fffff806`26230f40  kd_02_8086!I40eConfigureInterrupts
fffff806`262263d0  kd_02_8086!ixgbe_led_off_t_X550em
fffff806`262285f8  kd_02_8086!ixgbe_write_ee_hostif_data_X550
fffff806`2621f104  kd_02_8086!XgbeStatistics
fffff806`26224620  kd_02_8086!ixgbe_calc_eeprom_checksum_X550
fffff806`26203864  kd_02_8086!e1000_FlashRead
fffff806`26224010  kd_02_8086!ixgbe_setup_mac_link_X540
fffff806`26228560  kd_02_8086!ixgbe_write_ee_hostif_buffer_X550
fffff806`26251b60  kd_02_8086!HotPatchSpareGlobals
fffff806`2622b1d8  kd_02_8086!ixgbe_poll_eerd_eewr_done
fffff806`262284e0  kd_02_8086!ixgbe_write_ee_hostif_X550
fffff806`262212b0  kd_02_8086!ixgbe_set_lan_id_multi_port_pcie_82598
fffff806`26220148  kd_02_8086!ixgbe_setup_fc
fffff806`2620f5f0  kd_02_8086!e1000_write_phy_reg_m88
fffff806`262017c0  kd_02_8086!UndiGetPacketLength
fffff806`26209f84  kd_02_8086!e1000_check_alt_mac_addr_generic
fffff806`26243ce0  kd_02_8086!i40e_pxe_memptr
fffff806`2621e330  kd_02_8086!UndiReceive
fffff806`26203e40  kd_02_8086!IsSurpriseRemoval
fffff806`26203f28  kd_02_8086!e1000_DownShift
fffff806`262383e0  kd_02_8086!_cpu_features_init
fffff806`2620b0f0  kd_02_8086!e1000_led_on_generic
fffff806`2621d900  kd_02_8086!UndiStart
fffff806`26238348  kd_02_8086!_GSHandlerCheck
fffff806`26202b50  kd_02_8086!e1000_UNDI_GetInitInfo
fffff806`2621241c  kd_02_8086!e1000_init_function_pointers_82540
fffff806`2621d650  kd_02_8086!InitUndiDriverSupported
fffff806`2621f9b4  kd_02_8086!XgbeWritePci16
fffff806`26256010  kd_02_8086!_guard_xfg_check_icall_fptr
fffff806`26231fa8  kd_02_8086!i40eAllocateDmaMem
fffff806`26225140  kd_02_8086!ixgbe_enter_lplu_t_x550em
fffff806`26243c68  kd_02_8086!e1000_pxe_31
fffff806`26230154  kd_02_8086!i40eIsVendorDeviceSupported
fffff806`2622bac0  kd_02_8086!ixgbe_set_rar_generic
fffff806`2622a994  kd_02_8086!ixgbe_init_ops_generic
fffff806`26203e14  kd_02_8086!IsLinkUp
fffff806`2623508c  kd_02_8086!i40e_set_filter_control
fffff806`2620aff8  kd_02_8086!e1000_init_rx_addrs_generic
fffff806`262010b0  kd_02_8086!KdInitializeController
fffff806`2622f190  kd_02_8086!ixgbe_reset_phy_nl
fffff806`26243c00  kd_02_8086!_isa_info
fffff806`26207d10  kd_02_8086!e1000_init_nvm_params_82575
fffff806`26230098  kd_02_8086!UndiPxeUpdate
fffff806`26237e6c  kd_02_8086!i40e_release_nvm
fffff806`2620c270  kd_02_8086!e1000_check_polarity_m88
fffff806`2621fdd4  kd_02_8086!ixgbe_read_i2c_byte_unlocked
fffff806`2621d9b0  kd_02_8086!UndiStop
fffff806`2620cb34  kd_02_8086!e1000_disable_phy_wakeup_reg_access_bm
fffff806`26201248  kd_02_8086!IntelGetHardwareContextSize
fffff806`26224310  kd_02_8086!ixgbe_write_eewr_buffer_X540
fffff806`26231cd8  kd_02_8086!I40eSetupTxRxResources
fffff806`2621fc24  kd_02_8086!ixgbe_get_link_capabilities
fffff806`2621e518  kd_02_8086!IxgbeReverseWord
fffff806`26230340  kd_02_8086!i40eUndiDriverSupported
fffff806`26209f00  kd_02_8086!e1000_blink_led_generic
fffff806`26225850  kd_02_8086!ixgbe_get_phy_token
fffff806`262012a4  kd_02_8086!IntelInitializeController
fffff806`2622a350  kd_02_8086!ixgbe_get_fcoe_boot_status_generic
fffff806`26230a20  kd_02_8086!i40e_UndiStnAddr
fffff806`26233714  kd_02_8086!i40e_aq_get_switch_config
fffff806`2621cf80  kd_02_8086!e1000_read_nvm_srrd_i210
fffff806`26201650  kd_02_8086!KdStallExecutionProcessor
fffff806`26226c10  kd_02_8086!ixgbe_release_swfw_sync_X550em
fffff806`26237500  kd_02_8086!i40e_shutdown_asq
fffff806`2621dcd0  kd_02_8086!UndiShutdown
fffff806`2621f074  kd_02_8086!XgbeSetRegBits
fffff806`26231a94  kd_02_8086!I40eSetupPFSwitch
fffff806`26223e80  kd_02_8086!ixgbe_reset_hw_X540
fffff806`2620a400  kd_02_8086!e1000_cleanup_led_generic
fffff806`2620c69c  kd_02_8086!e1000_copper_link_setup_m88
fffff806`2622d454  kd_02_8086!ixgbe_write_eewr_generic
fffff806`26234568  kd_02_8086!i40e_clear_pxe_mode
fffff806`2621e5e4  kd_02_8086!XgbeClearRegBits
fffff806`2620e820  kd_02_8086!e1000_read_phy_reg_bm
fffff806`262363dc  kd_02_8086!i40e_set_lan_tx_queue_context
fffff806`26203be0  kd_02_8086!e1000_read_pcie_cap_reg
fffff806`262152c0  kd_02_8086!e1000_init_function_pointers_82541
fffff806`262136d8  kd_02_8086!e1000_init_function_pointers_82571
fffff806`2622b8d0  kd_02_8086!ixgbe_set_mac_anti_spoofing
fffff806`26229c90  kd_02_8086!ixgbe_enable_rx_generic
fffff806`26234594  kd_02_8086!i40e_get_mac_addr
fffff806`2622fc50  kd_02_8086!ixgbe_write_i2c_byte_generic_unlocked
fffff806`26230efc  kd_02_8086!I40eAquireControllerHw
fffff806`2621fab4  kd_02_8086!ixgbe_check_link
fffff806`26202a20  kd_02_8086!e1000_UNDI_GetState
fffff806`26231278  kd_02_8086!I40eDelayInMicroseconds
fffff806`26201478  kd_02_8086!GetDeviceLocation
fffff806`26233170  kd_02_8086!i40e_aq_clear_pxe_mode
fffff806`2622c290  kd_02_8086!ixgbe_set_vmdq_san_mac_generic
fffff806`26251360  kd_02_8086!Undi32DeviceList
fffff806`2620b15c  kd_02_8086!e1000_pcix_mmrbc_workaround_generic
fffff806`2622ccf0  kd_02_8086!ixgbe_update_eeprom_checksum_generic
fffff806`2620f9e0  kd_02_8086!e1000_read_nvm_eerd
fffff806`2620b920  kd_02_8086!e1000_write_vfta_generic
fffff806`26243c70  kd_02_8086!ActiveInterfaces
fffff806`2622680c  kd_02_8086!ixgbe_read_ee_hostif_data_X550
fffff806`2620397c  kd_02_8086!e1000_FlashWrite
fffff806`262011b0  kd_02_8086!KdReleaseRxPacket
fffff806`2622a8d0  kd_02_8086!ixgbe_init_eeprom_params_generic
fffff806`2620a424  kd_02_8086!e1000_clear_hw_cntrs_base_generic
fffff806`262266a0  kd_02_8086!ixgbe_read_ee_hostif_buffer_X550
fffff806`26242980  kd_02_8086!XgbePrivate
fffff806`262313ac  kd_02_8086!I40eGetVsiParams
fffff806`2620e108  kd_02_8086!e1000_phy_init_script_igp3
fffff806`2623424c  kd_02_8086!i40e_aq_update_vsi_params
fffff806`2622ac30  kd_02_8086!ixgbe_init_rx_addrs_generic
fffff806`2621e670  kd_02_8086!XgbeFirstTimeInit
fffff806`2620aa58  kd_02_8086!e1000_get_auto_rd_done_generic
fffff806`262050ec  kd_02_8086!e1000_Shutdown
fffff806`2620f590  kd_02_8086!e1000_write_phy_reg_igp_locked
fffff806`2621e120  kd_02_8086!UndiIp2Mac
fffff806`2623740c  kd_02_8086!i40e_shutdown_arq
fffff806`26243ca8  kd_02_8086!ixgbe_pxe_31
fffff806`262271a0  kd_02_8086!ixgbe_restore_mdd_vf_X550
fffff806`26256000  kd_02_8086!_guard_check_icall_fptr
fffff806`2620ce60  kd_02_8086!e1000_get_cable_length_m88_gen2
fffff806`26201050  kd_02_8086!KdGetPacketLength
fffff806`26201fc8  kd_02_8086!UndiSendTxPacket
fffff806`26236fb0  kd_02_8086!i40e_fill_default_direct_cmd_desc
fffff806`26223cf0  kd_02_8086!ixgbe_read_eerd_buffer_X540
fffff806`2620e750  kd_02_8086!e1000_power_up_phy_copper
fffff806`26225ba0  kd_02_8086!ixgbe_identify_sfp_module_X550em
fffff806`2620c100  kd_02_8086!e1000_check_polarity_82577
fffff806`2622b3c0  kd_02_8086!ixgbe_read_eeprom_buffer_bit_bang_generic
fffff806`2622e40c  kd_02_8086!ixgbe_identify_sfp_module_generic
fffff806`26203580  kd_02_8086!i40e_UndiFillHeader
fffff806`26204588  kd_02_8086!e1000_MapMem
fffff806`26217edc  kd_02_8086!e1000_configure_k1_ich8lan
fffff806`26228d80  kd_02_8086!ixgbe_calc_eeprom_checksum_generic
fffff806`262017dc  kd_02_8086!UndiGetRxPacket
fffff806`26226450  kd_02_8086!ixgbe_led_on_t_X550em
fffff806`26232ecc  kd_02_8086!I40eIsDeviceIdSupported
fffff806`26243cc0  kd_02_8086!i40e_pxe_31_struct
fffff806`26203330  kd_02_8086!e1000_UNDI_NVData
fffff806`26206440  kd_02_8086!e1000_read_mac_addr
fffff806`26243c28  kd_02_8086!UndiHardwareSupported
fffff806`26233ec8  kd_02_8086!i40e_aq_set_phy_config
fffff806`2621e7cc  kd_02_8086!XgbeFreeTxBuffers
fffff806`2620d2f0  kd_02_8086!e1000_get_phy_info_ife
fffff806`2622ff10  kd_02_8086!ixgbe_write_phy_reg_mdi
fffff806`262234e0  kd_02_8086!ixgbe_blink_led_start_X540
fffff806`262318ac  kd_02_8086!I40eReleaseControllerHw
fffff806`26203e4c  kd_02_8086!RxDisable
fffff806`26203620  kd_02_8086!e1000_UNDI_Transmit
fffff806`26227800  kd_02_8086!ixgbe_setup_internal_phy_t_x550em
fffff806`26206398  kd_02_8086!e1000_init_hw
fffff806`2621ed54  kd_02_8086!XgbeReceiveEnable
fffff806`2621fb38  kd_02_8086!ixgbe_disable_mc
fffff806`2620d81c  kd_02_8086!e1000_link_stall_workaround_hv
fffff806`2620ade0  kd_02_8086!e1000_id_led_init_generic
fffff806`26242010  kd_02_8086!e1000_api_table
fffff806`2620b270  kd_02_8086!e1000_put_hw_semaphore_generic
fffff806`26233b38  kd_02_8086!i40e_aq_remove_macvlan
fffff806`2622c000  kd_02_8086!ixgbe_set_vlan_anti_spoofing
fffff806`26202970  kd_02_8086!InitializeGigUNDIDriver
fffff806`2622fb00  kd_02_8086!ixgbe_write_i2c_byte_generic
fffff806`26243c30  kd_02_8086!UndiDriverStart
fffff806`26202140  kd_02_8086!UndiWaitForTxPacket
fffff806`26229bb0  kd_02_8086!ixgbe_disable_sec_rx_path_generic
fffff806`26228eb0  kd_02_8086!ixgbe_check_mac_link_generic
fffff806`262209b0  kd_02_8086!ixgbe_get_supported_physical_layer_82598
fffff806`2622f590  kd_02_8086!ixgbe_setup_phy_link_generic
fffff806`262447c0  kd_02_8086!gPdTabelEntry
fffff806`2621fe94  kd_02_8086!ixgbe_set_mac_type
fffff806`262045e8  kd_02_8086!i40eMemCopy
fffff806`2622f3e0  kd_02_8086!ixgbe_set_copper_phy_power
fffff806`2622d480  kd_02_8086!prot_autoc_read_generic
fffff806`2620cc30  kd_02_8086!e1000_get_cable_length_82577
fffff806`262200c4  kd_02_8086!ixgbe_set_rate_select_speed
fffff806`2620852c  kd_02_8086!e1000_initialize_M88E1543_phy
fffff806`262064e8  kd_02_8086!e1000_set_mac_type
fffff806`262014c4  kd_02_8086!GetDeviceMemory
fffff806`2622b580  kd_02_8086!ixgbe_read_eerd_generic
fffff806`26203580  kd_02_8086!e1000_UNDI_FillHeader
fffff806`2620f740  kd_02_8086!e1000_acquire_nvm_generic
fffff806`2620c398  kd_02_8086!e1000_copper_link_setup_82577
fffff806`26232844  kd_02_8086!i40eReceive
fffff806`26203b10  kd_02_8086!e1000_pci_clear_mwi
fffff806`2621d6a8  kd_02_8086!InitUndiPxeStructInit
fffff806`2622b008  kd_02_8086!ixgbe_mng_enabled
fffff806`2624a7cc  kd_02_8086!KdNetRxError
fffff806`262029b4  kd_02_8086!InitializePxeStruct
fffff806`2622d7d0  kd_02_8086!ixgbe_get_copper_link_capabilities_generic
fffff806`262244b4  kd_02_8086!ixgbe_calc_checksum_X550
fffff806`26238490  kd_02_8086!_security_check_cookie
fffff806`2620e6e0  kd_02_8086!e1000_power_down_phy_copper
fffff806`26230480  kd_02_8086!i40e_UndiStop
fffff806`26231358  kd_02_8086!I40eFreeTxRxQueues
fffff806`26242990  kd_02_8086!ixgbe_api_table
fffff806`26224c40  kd_02_8086!ixgbe_dmac_config_X550
fffff806`2622b0b0  kd_02_8086!ixgbe_negotiate_fc
fffff806`2624f600  kd_02_8086!XgbeDeviceList
fffff806`2621fda8  kd_02_8086!ixgbe_read_eeprom
fffff806`2621d0dc  kd_02_8086!e1000_update_flash_i210
fffff806`2624e300  kd_02_8086!gXgbeUndiPrivateData
fffff806`2621fcd4  kd_02_8086!ixgbe_init_hw
fffff806`26234310  kd_02_8086!i40e_clear_hw
fffff806`2620aac0  kd_02_8086!e1000_get_bus_info_pci_generic
fffff806`2620f720  kd_02_8086!e1000_write_phy_reg_page_hv
fffff806`26205c98  kd_02_8086!e1000_TransmitDisable
fffff806`26202a20  kd_02_8086!UndiGetState
fffff806`26221bc0  kd_02_8086!ixgbe_get_media_type_82599
fffff806`26238c00  kd_02_8086!_memset_spec_ermsb_repmovsb
fffff806`2621fbfc  kd_02_8086!ixgbe_get_device_caps
fffff806`2622ea40  kd_02_8086!ixgbe_read_i2c_byte_generic
fffff806`262376bc  kd_02_8086!GetRegisterInitializationDataOffset
fffff806`2620c4bc  kd_02_8086!e1000_copper_link_setup_igp
fffff806`2620c2c0  kd_02_8086!e1000_check_reset_block_generic
fffff806`2622a420  kd_02_8086!ixgbe_get_mac_addr_generic
fffff806`2621c760  kd_02_8086!e1000_acquire_swfw_sync_i210
fffff806`26221470  kd_02_8086!ixgbe_set_vfta_82598
fffff806`262264d0  kd_02_8086!ixgbe_mdd_event_X550
fffff806`2621e9b4  kd_02_8086!XgbeInitialize
fffff806`2622d310  kd_02_8086!ixgbe_write_eeprom_generic
fffff806`2622e050  kd_02_8086!ixgbe_identify_phy_generic
fffff806`26225740  kd_02_8086!ixgbe_get_link_capabilities_X550em
fffff806`2620a664  kd_02_8086!e1000_commit_fc_settings_generic
fffff806`26221c60  kd_02_8086!ixgbe_get_supported_physical_layer_82599
fffff806`26234164  kd_02_8086!i40e_aq_set_vsi_unicast_promiscuous
fffff806`2622dcc0  kd_02_8086!ixgbe_get_supported_phy_sfp_layer_generic
fffff806`2621f9f4  kd_02_8086!ixgbe_MapMem
fffff806`2621b20c  kd_02_8086!e1000_set_eee_pchlan
fffff806`26229b20  kd_02_8086!ixgbe_disable_rx_generic
fffff806`2620b740  kd_02_8086!e1000_update_mc_addr_list_generic
fffff806`26242000  kd_02_8086!UndiPrivateData
fffff806`26231df8  kd_02_8086!I40eShutdown
fffff806`26243c20  kd_02_8086!UndiInitializeDriver
fffff806`26237acc  kd_02_8086!i40e_read_nvm_aq
fffff806`26208f84  kd_02_8086!e1000_rx_fifo_flush_82575
fffff806`262188d0  kd_02_8086!e1000_init_function_pointers_ich8lan
fffff806`2620fbb0  kd_02_8086!e1000_read_nvm_spi
fffff806`2620de48  kd_02_8086!e1000_phy_force_speed_duplex_setup
fffff806`26243ce8  kd_02_8086!i40e_pxe_31
fffff806`26205180  kd_02_8086!e1000_Statistics
fffff806`262307c0  kd_02_8086!i40e_UndiShutdown
fffff806`2621e934  kd_02_8086!XgbeInitHw
fffff806`26220e00  kd_02_8086!ixgbe_read_analog_reg8_82598
fffff806`2620ac18  kd_02_8086!e1000_get_hw_semaphore_generic
fffff806`2620b810  kd_02_8086!e1000_valid_led_default_generic
fffff806`26242ab0  kd_02_8086!ixgbe_branding_table
fffff806`26257010  kd_02_8086!memset$thunk$772440563353939046
fffff806`26204ee0  kd_02_8086!e1000_SetRegBits
fffff806`2621f444  kd_02_8086!XgbeTransmit
fffff806`26227f40  kd_02_8086!ixgbe_setup_mac_link_sfp_x550em
fffff806`26230038  kd_02_8086!I40eInitializePxeStruct
fffff806`26206f24  kd_02_8086!e1000_write_phy_reg
fffff806`2622a1d0  kd_02_8086!ixgbe_get_bus_info_generic
fffff806`26210130  kd_02_8086!e1000_update_nvm_checksum_generic
fffff806`2624a7d0  kd_02_8086!KdNetRxOk
fffff806`2625a000  kd_02_8086!_guard_fids_table
fffff806`26221910  kd_02_8086!ixgbe_disable_tx_laser_multispeed_fiber
fffff806`2623759c  kd_02_8086!EepromGetMaxPfPerPortNumber
fffff806`2620f570  kd_02_8086!e1000_write_phy_reg_igp
fffff806`26239000  kd_02_8086!load_config_used
fffff806`262017a8  kd_02_8086!UndiGetPacketAddress
fffff806`262312ac  kd_02_8086!I40eDiscoverCapabilities
fffff806`26221a70  kd_02_8086!ixgbe_get_link_capabilities_82599
fffff806`2621d130  kd_02_8086!e1000_update_nvm_checksum_i210
fffff806`26233cec  kd_02_8086!i40e_aq_rx_ctl_read_register
fffff806`2621e390  kd_02_8086!XgbeUndiApiEntry
fffff806`26231e5c  kd_02_8086!IsQualifiedSfpModule
fffff806`26234c50  kd_02_8086!i40e_pf_reset
fffff806`2622f080  kd_02_8086!ixgbe_reset_phy_generic
fffff806`2622adc0  kd_02_8086!ixgbe_insert_mac_addr_generic
fffff806`2620d0ec  kd_02_8086!e1000_get_phy_id
fffff806`26221700  kd_02_8086!ixgbe_start_hw_82598
fffff806`26223904  kd_02_8086!ixgbe_init_ops_X540
fffff806`26203cdc  kd_02_8086!e1000_write_pcie_cap_reg
fffff806`2622ddf0  kd_02_8086!ixgbe_i2c_bus_clear
fffff806`26237364  kd_02_8086!i40e_init_asq
fffff806`2622b710  kd_02_8086!ixgbe_release_swfw_sync
fffff806`2620151c  kd_02_8086!GetDevicePciInfo
fffff806`26235704  kd_02_8086!i40e_configure_lan_hmc
fffff806`26238230  kd_02_8086!i40e_remove_pd_page_new
fffff806`2622b4a0  kd_02_8086!ixgbe_read_eerd_buffer_generic
fffff806`2621f6b0  kd_02_8086!XgbeTxRxConfigure
fffff806`2622b770  kd_02_8086!ixgbe_set_fw_drv_ver_generic
fffff806`262201c8  kd_02_8086!ixgbe_setup_mac_link
fffff806`262232c0  kd_02_8086!prot_autoc_write_82599
fffff806`2621ea44  kd_02_8086!i40eWrite32
fffff806`2622da4c  kd_02_8086!ixgbe_get_phy_id
fffff806`26233f5c  kd_02_8086!i40e_aq_set_port_parameters
fffff806`262222c0  kd_02_8086!ixgbe_read_analog_reg8_82599
fffff806`26226b20  kd_02_8086!ixgbe_read_phy_reg_x550a
fffff806`26201010  kd_02_8086!KdGetHardwareContextSize
fffff806`2621e180  kd_02_8086!i40e_UndiNVData
fffff806`26206278  kd_02_8086!IsDeviceIdSupported
fffff806`2622cbf0  kd_02_8086!ixgbe_stop_adapter_generic
fffff806`26229c20  kd_02_8086!ixgbe_enable_mc_generic
fffff806`26230110  kd_02_8086!i40eInitializeUNDIDriver
fffff806`26201794  kd_02_8086!UndiGetHardwareContextSize
fffff806`2624a7e0  kd_02_8086!gUndiPrivateData
fffff806`26220280  kd_02_8086!ixgbe_write_phy_reg
fffff806`26230190  kd_02_8086!i40eUndiDriverStart
fffff806`26243d80  kd_02_8086!gSdTableAddr
fffff806`26236a10  kd_02_8086!i40e_asq_send_command
fffff806`26230570  kd_02_8086!i40e_UndiGetConfigInfo
fffff806`2621e4c8  kd_02_8086!IxgbeReverseDword
fffff806`26223d80  kd_02_8086!ixgbe_release_swfw_sync_X540
fffff806`26203680  kd_02_8086!e1000_UNDI_Receive
fffff806`2622faa0  kd_02_8086!ixgbe_validate_phy_addr
fffff806`26222e6c  kd_02_8086!ixgbe_start_mac_link_82599
fffff806`26243210  kd_02_8086!gUndiApiTable
fffff806`2620f480  kd_02_8086!e1000_write_phy_reg_hv
fffff806`262288e0  kd_02_8086!ixgbe_write_phy_reg_x550a
fffff806`26202bf0  kd_02_8086!e1000_UNDI_GetConfigInfo
fffff806`262332a8  kd_02_8086!i40e_aq_discover_capabilities
fffff806`26203e40  kd_02_8086!e1000_null_mng_mode
fffff806`2622fa50  kd_02_8086!ixgbe_tn_check_overtemp
fffff806`26222e30  kd_02_8086!ixgbe_start_hw_82599
fffff806`26201070  kd_02_8086!KdGetRxPacket
fffff806`26225dac  kd_02_8086!ixgbe_init_ops_X550
fffff806`262372c4  kd_02_8086!i40e_init_arq
fffff806`26222b70  kd_02_8086!ixgbe_setup_mac_link_smartspeed
fffff806`2622cd60  kd_02_8086!ixgbe_update_mc_addr_list_generic
fffff806`2620ede0  kd_02_8086!e1000_set_d3_lplu_state_generic
fffff806`2620646c  kd_02_8086!e1000_read_nvm
fffff806`262106c8  kd_02_8086!e1000_enable_tx_pkt_filtering_generic
fffff806`2621d4e0  kd_02_8086!InitUndiDriverStart
fffff806`2622cfa0  kd_02_8086!ixgbe_validate_eeprom_checksum_generic
fffff806`26232678  kd_02_8086!i40eMapMem
fffff806`2622b9f4  kd_02_8086!ixgbe_set_pci_config_data_generic
fffff806`2622cb60  kd_02_8086!ixgbe_start_hw_generic
fffff806`2620b500  kd_02_8086!e1000_set_lan_id_single_port
fffff806`2620f3f0  kd_02_8086!e1000_write_phy_reg_gs40g
fffff806`2620e470  kd_02_8086!e1000_phy_reset_dsp_generic
fffff806`2620a620  kd_02_8086!e1000_clear_vfta_generic
fffff806`26229d60  kd_02_8086!ixgbe_fc_autoneg
fffff806`2622ee70  kd_02_8086!ixgbe_read_i2c_eeprom_generic
fffff806`2621ead0  kd_02_8086!XgbeReadPci16
fffff806`262038e0  kd_02_8086!e1000_FlashRead16
fffff806`26238130  kd_02_8086!i40e_prep_remove_sd_bp
fffff806`262303b0  kd_02_8086!i40e_UndiGetState
fffff806`26221e3c  kd_02_8086!ixgbe_init_mac_link_ops_82599
fffff806`2621db10  kd_02_8086!UndiInitialize
fffff806`2621e900  kd_02_8086!i40eRead32
fffff806`26237068  kd_02_8086!i40e_init_adminq
fffff806`26203580  kd_02_8086!UndiFillHeader
fffff806`2622ec1c  kd_02_8086!ixgbe_read_i2c_combined_generic_int
fffff806`2620b3fc  kd_02_8086!e1000_set_fc_watermarks_generic
fffff806`26204394  kd_02_8086!e1000_FreeTxBuffers
fffff806`26242130  kd_02_8086!branding_table
fffff806`2620a180  kd_02_8086!e1000_check_for_fiber_link_generic
fffff806`2622fc6c  kd_02_8086!ixgbe_write_i2c_combined_generic_int
fffff806`26225f10  kd_02_8086!ixgbe_init_ops_X550EM
fffff806`26206328  kd_02_8086!e1000_check_for_link
fffff806`2622b078  kd_02_8086!ixgbe_mng_present
fffff806`26224118  kd_02_8086!ixgbe_update_flash_X540
fffff806`262048d0  kd_02_8086!e1000_ReceiveEnable
fffff806`26201a0c  kd_02_8086!UndiInitializeController
fffff806`2622d03c  kd_02_8086!ixgbe_validate_mac_addr
fffff806`2622fe80  kd_02_8086!ixgbe_write_phy_reg_generic
fffff806`26235574  kd_02_8086!i40e_write_rx_ctl
fffff806`2620d1d0  kd_02_8086!e1000_get_phy_info_82577
fffff806`2622fe50  kd_02_8086!ixgbe_write_i2c_eeprom_generic
fffff806`2621fb88  kd_02_8086!ixgbe_enable_mc
fffff806`262020c0  kd_02_8086!UndiShutdownController
fffff806`2620ad40  kd_02_8086!e1000_get_speed_and_duplex_fiber_serdes_generic
fffff806`26210260  kd_02_8086!e1000_write_nvm_microwire
fffff806`2620ea80  kd_02_8086!e1000_read_phy_reg_hv
fffff806`26256028  kd_02_8086!_castguard_check_failure_os_handled_fptr
fffff806`26243a80  kd_02_8086!_security_cookie
fffff806`26202904  kd_02_8086!GigUndiPxeUpdate
fffff806`26223be0  kd_02_8086!ixgbe_init_swfw_sync_X540
fffff806`262028a0  kd_02_8086!GigUndiPxeStructInit
fffff806`2623815c  kd_02_8086!i40e_remove_pd_bp
fffff806`2621c9b0  kd_02_8086!e1000_init_hw_i210
fffff806`262010d0  kd_02_8086!KdInitializeLibrary
fffff806`2622b250  kd_02_8086!ixgbe_read_eeprom_bit_bang_generic
fffff806`26232a34  kd_02_8086!i40eSetFilter
fffff806`26220174  kd_02_8086!ixgbe_setup_internal_phy
fffff806`26222960  kd_02_8086!ixgbe_setup_mac_link_82599
fffff806`26203090  kd_02_8086!e1000_UNDI_StnAddr
fffff806`26229c60  kd_02_8086!ixgbe_enable_rx_dma_generic
fffff806`2620462c  kd_02_8086!e1000_Receive
fffff806`2622a210  kd_02_8086!ixgbe_get_device_caps_generic
fffff806`2620fdb0  kd_02_8086!e1000_release_nvm_generic
fffff806`26231ed0  kd_02_8086!ReadMfpConfiguration
fffff806`2621fb0c  kd_02_8086!ixgbe_clear_vmdq
fffff806`26229520  kd_02_8086!ixgbe_clear_rar_generic
fffff806`2620fab0  kd_02_8086!e1000_read_nvm_microwire
fffff806`2622019c  kd_02_8086!ixgbe_setup_link
fffff806`2620d3e0  kd_02_8086!e1000_get_phy_info_igp
fffff806`262318e4  kd_02_8086!I40eReset
fffff806`26236d04  kd_02_8086!i40e_clean_asq
fffff806`262326e0  kd_02_8086!i40ePciInit
fffff806`26231750  kd_02_8086!I40eReceiveStop
fffff806`262269c0  kd_02_8086!ixgbe_read_iosf_sb_reg_x550a
fffff806`262324b4  kd_02_8086!i40eFreeDmaMem
fffff806`26228bc0  kd_02_8086!ixgbe_blink_led_start_generic
fffff806`26205a40  kd_02_8086!e1000_Transmit
fffff806`2620e040  kd_02_8086!e1000_phy_hw_reset_generic
fffff806`26228404  kd_02_8086!ixgbe_update_flash_X550
fffff806`2622d9f0  kd_02_8086!ixgbe_get_phy_firmware_version_generic
fffff806`26203200  kd_02_8086!e1000_UNDI_ip2mac
fffff806`2620e7c0  kd_02_8086!e1000_read_kmrn_reg_locked
fffff806`2621e53c  kd_02_8086!XgbeClearFilter
fffff806`2623165c  kd_02_8086!I40eReceiveStart
fffff806`26229700  kd_02_8086!ixgbe_clear_vfta_generic
fffff806`262281b0  kd_02_8086!ixgbe_setup_sfp_modules_X550em
fffff806`2620f930  kd_02_8086!e1000_read_mac_addr_generic
fffff806`2621e900  kd_02_8086!XgbeInDword
fffff806`26229984  kd_02_8086!ixgbe_device_supports_autoneg_fc
fffff806`2623191c  kd_02_8086!I40eSetMcastList
fffff806`2622a960  kd_02_8086!ixgbe_init_hw_generic
fffff806`26201090  kd_02_8086!KdGetTxPacket
fffff806`262047b0  kd_02_8086!e1000_ReceiveDisable
fffff806`26259008  kd_02_8086!_security_init_cookie
fffff806`2621ea10  kd_02_8086!XgbeLanFunction
fffff806`2620d900  kd_02_8086!e1000_phy_force_speed_duplex_82577
fffff806`2620eb70  kd_02_8086!e1000_read_phy_reg_igp
fffff806`262224a0  kd_02_8086!ixgbe_reset_hw_82599
fffff806`26220670  kd_02_8086!ixgbe_fc_enable_82598
fffff806`2622a530  kd_02_8086!ixgbe_get_san_mac_addr_generic
fffff806`2621d080  kd_02_8086!e1000_release_swfw_sync_i210
fffff806`26237888  kd_02_8086!_i40e_read_nvm_word
fffff806`2623252c  kd_02_8086!i40eFreeMem
fffff806`26201580  kd_02_8086!KdNetUndiDelay
fffff806`26208304  kd_02_8086!e1000_initialize_M88E1512_phy
fffff806`26231614  kd_02_8086!I40eReadMacAddress
fffff806`26243d00  kd_02_8086!gLanHMCObj
fffff806`26223c70  kd_02_8086!ixgbe_read_eerd_X540
fffff806`26227d90  kd_02_8086!ixgbe_setup_mac_link_sfp_x550a
fffff806`262045e8  kd_02_8086!e1000_MemCopy
fffff806`26201674  kd_02_8086!ReadDeviceMemory
fffff806`262379e0  kd_02_8086!i40e_init_nvm
fffff806`26203ba0  kd_02_8086!e1000_read_pci_cfg
fffff806`2624a7c0  kd_02_8086!KdNetExtensibilityImports
fffff806`26224df0  kd_02_8086!ixgbe_dmac_update_tcs_X550
fffff806`26236738  kd_02_8086!i40e_alloc_adminq_arq_ring
fffff806`2620f1b8  kd_02_8086!e1000_write_kmrn_reg_generic
fffff806`26201994  kd_02_8086!UndiGetTxPacket
fffff806`26206134  kd_02_8086!e1000_WaitForAutoNeg
fffff806`26235618  kd_02_8086!i40e_calculate_l2fpm_size
fffff806`2621e63c  kd_02_8086!XgbeDelayInMicroseconds
fffff806`2622bbd0  kd_02_8086!ixgbe_set_rxpba_generic
fffff806`26204f34  kd_02_8086!e1000_SetSpeedDuplex
fffff806`2621da70  kd_02_8086!UndiGetConfigInfo
fffff806`26243200  kd_02_8086!I40ePrivate
fffff806`26226190  kd_02_8086!ixgbe_init_phy_ops_X550em
fffff806`2621f9e0  kd_02_8086!XgbeIterateMcastMacAddr
fffff806`2622be40  kd_02_8086!ixgbe_set_soft_rate_select_speed
fffff806`2623648c  kd_02_8086!i40e_shutdown_lan_hmc
fffff806`26221dd0  kd_02_8086!ixgbe_identify_phy_82599
fffff806`2622c320  kd_02_8086!ixgbe_setup_fc_generic
fffff806`262280e0  kd_02_8086!ixgbe_setup_mac_link_t_X550em
fffff806`26224b10  kd_02_8086!ixgbe_disable_mdd_X550
fffff806`26230fd0  kd_02_8086!I40eConfigureTxRxQueues
fffff806`26232f3c  kd_02_8086!i40e_aq_add_macvlan
fffff806`262268f0  kd_02_8086!ixgbe_read_iosf_sb_reg_x550
fffff806`26232244  kd_02_8086!i40eFirstTimeInit
fffff806`26243c40  kd_02_8086!e1000_pxe_31_struct
fffff806`26233204  kd_02_8086!i40e_aq_debug_read_register
fffff806`26228b6c  kd_02_8086!ixgbe_add_uc_addr
fffff806`262334bc  kd_02_8086!i40e_aq_get_link_info
fffff806`262384c0  kd_02_8086!_report_gsfailure
fffff806`26220254  kd_02_8086!ixgbe_write_i2c_byte_unlocked
fffff806`26206edc  kd_02_8086!e1000_update_mc_addr_list
fffff806`2620eac0  kd_02_8086!e1000_read_phy_reg_i2c
fffff806`262304e0  kd_02_8086!i40e_UndiGetInitInfo
fffff806`262100c0  kd_02_8086!e1000_stop_nvm
fffff806`2620e660  kd_02_8086!e1000_phy_sw_reset_generic
fffff806`2622d4e0  kd_02_8086!ixgbe_check_phy_link_tnx
fffff806`26222ce0  kd_02_8086!ixgbe_setup_sfp_modules_82599
fffff806`26203d8c  kd_02_8086!e1000_write_reg_io
fffff806`26227170  kd_02_8086!ixgbe_reset_phy_t_X550em
fffff806`26233634  kd_02_8086!i40e_aq_get_phy_capabilities
fffff806`26235170  kd_02_8086!i40e_stat_str
fffff806`26231ca4  kd_02_8086!I40eSetupPfQueues
fffff806`26234f18  kd_02_8086!i40e_set_fc
fffff806`2621fe00  kd_02_8086!ixgbe_read_phy_reg
fffff806`2620b470  kd_02_8086!e1000_set_lan_id_multi_port_pci
fffff806`2620a100  kd_02_8086!e1000_check_for_copper_link_generic
fffff806`2620b370  kd_02_8086!e1000_set_default_fc_generic
fffff806`26206498  kd_02_8086!e1000_read_phy_reg
fffff806`2622011c  kd_02_8086!ixgbe_set_vmdq
fffff806`2621d824  kd_02_8086!XgbeIsVendorDeviceSupported
fffff806`262382bc  kd_02_8086!i40e_remove_sd_bp_new
fffff806`2620f098  kd_02_8086!e1000_setup_copper_link_generic
fffff806`26236768  kd_02_8086!i40e_alloc_adminq_asq_ring
fffff806`2620f7cc  kd_02_8086!e1000_init_nvm_ops_generic
fffff806`262063c4  kd_02_8086!e1000_init_nvm_params
fffff806`26243c80  kd_02_8086!ixgbe_pxe_31_struct
fffff806`2622a610  kd_02_8086!ixgbe_get_wwn_prefix_generic
fffff806`2622bf10  kd_02_8086!ixgbe_set_vfta_generic
fffff806`2620c2e8  kd_02_8086!e1000_copper_link_autoneg
fffff806`26220220  kd_02_8086!ixgbe_update_mc_addr_list
fffff806`2622bd70  kd_02_8086!ixgbe_set_san_mac_addr_generic
fffff806`26201230  kd_02_8086!KdShutdownController
fffff806`26228aa0  kd_02_8086!ixgbe_acquire_swfw_sync
fffff806`26225ccc  kd_02_8086!ixgbe_init_mac_link_ops_X550em
fffff806`2620f4c0  kd_02_8086!e1000_write_phy_reg_i2c
fffff806`2621e120  kd_02_8086!i40e_UndiIp2Mac
fffff806`2621fc78  kd_02_8086!ixgbe_get_media_type
fffff806`26224b70  kd_02_8086!ixgbe_disable_rx_x550
fffff806`2621e2d0  kd_02_8086!UndiTransmit
fffff806`262250e0  kd_02_8086!ixgbe_enable_mdd_X550
fffff806`26237dd4  kd_02_8086!i40e_read_nvm_word_srctl
fffff806`26201424  kd_02_8086!IntelInitializeLibrary
fffff806`262011f0  kd_02_8086!KdSetHibernateRange
fffff806`26223370  kd_02_8086!ixgbe_acquire_swfw_sync_X540
fffff806`2620b204  kd_02_8086!e1000_poll_fiber_serdes_link_generic
fffff806`262337d0  kd_02_8086!i40e_aq_get_vsi_params
fffff806`2620cabc  kd_02_8086!e1000_determine_phy_address
fffff806`262011d0  kd_02_8086!KdSendTxPacket
fffff806`26224d00  kd_02_8086!ixgbe_dmac_config_tcs_X550
fffff806`26205d1c  kd_02_8086!e1000_TxRxConfigure
fffff806`26238740  kd_02_8086!_memset_query
fffff806`2620e4c0  kd_02_8086!e1000_phy_setup_autoneg
fffff806`26238580  kd_02_8086!memset
fffff806`26220e70  kd_02_8086!ixgbe_read_i2c_eeprom_82598
fffff806`262340c8  kd_02_8086!i40e_aq_set_vsi_multicast_promiscuous
fffff806`262105c0  kd_02_8086!e1000_check_mng_mode_generic